:10D40000FF142D2D2D204D65637269737020436FBD
:10D410007265202D2D2D18D48109686F6F6B2D6BCF
:10D4200065793F0032D42483B440FE2000003041AF
:10D430009AFA8108686F6F6B2D6B65794AD42483E3
:10D44000B440FC2000003041BEFA810A686F6F6B67
:10D450002D656D69743F64D42483B440FA200000C4
:10D460003041E6FA8109686F6F6B2D656D69740054
:10D470007ED42483B440F820000030410CFB00042B
:10D480006B65793F8AD41042FE2000036B657900FA
:10D4900096D41042FC200005656D69743F00A4D449
:10D4A0001042FA200004656D6974B0D41042F8206F
:10D4B00000046865782EF2D427448710B012C8D4CF
:10D4C0003744B012C8D4293C47472483844700001E
:10D4D000B4F00F0000000711071107110711248392
:10D4E00084470000B012D8DAB012ACD4B012D8DA47
:10D4F000DD3F0002637200D5B012E0E3010A304163
:10D500006002626C10D52483B440200000003041DA
:10D51000000573706163650022D5B012E0E301205D
:10D520003041000673706163657340D584930000D9
:10D530000524B0121AD594830000FB2324533041F4
:10D540000005776F72647300ECD50A12B012E0E345
:10D5500006776F7264730A00B012D2EDB012E0E386
:10D5600009416464726573733A2024839444020011
:10D570000000B012B8D4B012E0E307466C616773E4
:10D580003A2027446747B012C8D42A441A53248348
:10D59000844A0000B01248E3B012E0E307204C696F
:10D5A0006E6B3A202483A44A0000B012B8D42A53E8
:10D5B0002483844A0000B012E0E306436F64653AB6
:10D5C0002000B012B8D4B012E0E3064E616D653AA7
:10D5D0002000B0125CE3B012E0E3010AB012FEEDED
:10D5E000B4B4FEFFBB2724533A41304100022E73EE
:10D5F000FAD50C123C4006DC0F3C0003682E730089
:10D600000AD60C123C40B8D4073C0003752E7300B8
:10D6100084D60C123C40F8DB0A120B123A40761109
:10D620000B4A0B84B012E0E30920537461636B3A38
:10D63000205B12C30B101212F620B2400A00F62033
:10D640002483844B0000B012F8DBB241F620B01204
:10D65000E0E3025D20000B930C242A832483A44A78
:10D6600000008C121B830524B012E0E3022C200082
:10D67000F43FB012E0E304202A3E0A003B413A4165
:10D680003C41304100032E727300B8D60C123C406E
:10D69000B8D40A120B123A4030120B4A0B813B806D
:10D6A0000600B012E0E30F2052657475726E737459
:10D6B00061636B3A205BBD3F4404326E6970CAD629
:10D6C000B4440200B4440200304162053264726F17
:10D6D0007000D8D6245230414605322D726F740046
:10D6E0000AD727449444040000009444080004002E
:10D6F0008447080017440200944406000200944442
:10D700000A00060084470A003041460432726F74F2
:10D710003AD72744944408000000944404000800C9
:10D72000844704001744020094440A000200944411
:10D7300006000A00844706003041440532747563D0
:10D740006B006CD724839444040000002483944429
:10D750000400000094440800040094440A000600F9
:10D76000A4440800944402000A0030414405327386
:10D770007761700092D727449444040000008447E6
:10D780000400174402009444060002008447060087
:10D7900030414405326F76657200ACD724829444E0
:10D7A0000800000094440A00020030414204326440
:10D7B0007570C4D724829444040000009444060089
:10D7C000020030410003323E7200DED721829141D7
:10D7D00004000000B1440200B144040030410003E1
:10D7E00032723E00FCD72482944102000000944132
:10D7F00004000200A14104002152304100033272B2
:10D80000400014D824829441020000009441040096
:10D81000020030412006327264726F7022D82152A9
:10D82000304100056465707468003ED83740761159
:10D83000078412C30710248384470000304100048A
:10D840007069636B54D82744175307570754A4478C
:10D850000000304162036E69700062D8B444000079
:10D860003041610464726F706ED8245330414303B9
:10D87000726F74008AD827449444040000009444D2
:10D880000200040084470200304143042D726F748B
:10D89000A6D82744944402000000944404000200E7
:10D8A000844704003041420473776170BCD8274438
:10D8B0009444020000008447020030414204747521
:10D8C000636BD8D82483944402000000944404007D
:10D8D0000200A4440400304142046F766572EAD825
:10D8E0002483944404000000304141043F64757077
:10D8F000FAD884930000052030414103647570001C
:10D900000CD92483944402000000304120023E726E
:10D9100016D9341230412002723E24D92483B441F6
:10D92000000030412002724032D92483A44100001B
:10D93000304120057264726F700040D9215330412C
:10D9400000067264657074685CD9374030120781D4
:10D9500012C3071024838447000030410005727011
:10D9600069636B0072D9274407570751A447000029
:10D97000304120037370400084D9074424838447D6
:10D980000000304120037370210090D924443041BD
:10D99000200372704000A0D92483844100003041EC
:10D9A000200372702100ACD93144304161023E3C09
:10D9B000B6D9A41030414207617273686966740079
:10D9C000D2D9074337E40424241102241783FC230B
:10D9D00030414206727368696674EED9074337E4D2
:10D9E000052412C3241002241783FB23304142066E
:10D9F0006C73686966740ADA074337E40524A45433
:10DA0000000002241783FB23304161037368720016
:10DA100018DA12C324103041610373686C0026DAEF
:10DA2000A454000030416103726F72003CDA12C3EB
:10DA300024100328B4D00080000030416103726FCD
:10DA40006C004EDAA4540000846300003041690386
:10DA5000626963005CDAB4C40000304161036E6F38
:10DA600074006ADAB4E3000030416903786F720031
:10DA700078DAB4E40000304169026F7284DAB4D419
:10DA8000000030416903616E640092DAB4F4000072
:10DA90003041600474727565A2DA2483B4430000D7
:10DAA0003041600566616C736500B4DA2483844399
:10DAB000000030414103636C7A00CEDA37431753DC
:10DAC00012D3A4640000FB2B844700003041000601
:10DAD0002E6469676974FCDA274437900A00032CC6
:10DAE00037503000083C37902400032C3750370063
:10DAF000023C374023008447000030410005646940
:10DB0000676974004CDB2744378030001328379056
:10DB10000A0013283780070037900A000B28379037
:10DB200024000B283780200037900A000328379004
:10DB3000240003288443000030411792F620FA2F76
:10DB4000844700002483B443000030410004686F20
:10DB50006C647ADBF290230012110D2C57421211E3
:10DB6000D253121107930524D747121113111783AB
:10DB7000FB23E24413112453304100047369676EA0
:10DB800094DB84930000023024533041B4402D00D4
:10DB90000000E03F00022353ACDBB012B2DB849301
:10DBA0000000FB2384930200F8233041000123008E
:10DBB000CEDB24829442F620020084430000B0129F
:10DBC000C2DFB01276D72453B012D8DAC33F0002B6
:10DBD000233EE6DBB44013110200374012116747C1
:10DBE00084470000304100023C23F2DBC2431211A3
:10DBF00030410002752E00DC248384430000123C77
:10DC000000012E000CDCB0120CE10C3C000375642A
:10DC10002E001EDCB012ECDBB0129ADB0F3C0002CF
:10DC2000642E54DCB012C4D8B012B6E0B012ECDBF3
:10DC3000B0129ADB2452B01282DB2482B012D4DB01
:10DC4000B01286E3B012E0E3012030410A123A40FC
:10DC50001000B93D4402662F96DC0A120A43B4B0A4
:10DC60000080000003281A53B012CAE0B4B000804C
:10DC7000040007281A53B01276D7B012CAE0B012C7
:10DC800076D7B0124CDCB012C0D61AB30228B0124C
:10DC9000CAE03A4130414402662ADEDC0A120A43F5
:10DCA000B4B00080000003281A53B012CAE0B012CA
:10DCB00076D7B4B00080000003281A53B012CAE02F
:10DCC000B0122AE0944404000600944402000400C8
:10DCD00024521AB30228B012CAE03A41304100057A
:10DCE000686F6C643C0000DDF29023001211062C7A
:10DCF000D253121157421211E744121124533041EA
:10DD00000003662353001ADD0A123A401000B012D5
:10DD100020DD1A83FC233A4130410002662332DDC4
:10DD200024839442F6200000B012D2E1B012D8DA77
:10DD3000DB3F0002662E3EDD30121000053C000382
:10DD4000662E6E0084DD3412B012C4D8B012B6E074
:10DD5000248384430000B012ECDBB0129ADB24531E
:10DD6000B4402C000000B012E8DCB01220DD91833A
:10DD70000000FB232153944402000000B01282DB18
:10DD800024835C3F00066E756D626572A8DE0A1220
:10DD90000B120C120D120E121212F6200E433B44FF
:10DDA0003A440B937A246D4A7D9024003C40100045
:10DDB00009247D9025002C4305247D9023003C40C0
:10DDC0000A000520824CF6201A531B836624FA9021
:10DDD0002D000000021202201A531B830C430D4336
:10DDE0001E430B934A24FA902E00000002202E437B
:10DDF0001B3C2483E44A0000C4430100B01206DB4C
:10DE0000B4B4FEFF14243482844C0600844D040014
:10DE10009442F620020084430000B0122AE024520B
:10DE20003D443C443C540D631A531B83DA3F0D4C74
:10DE30000C432483844C000024830A5B1A83E44A45
:10DE400000001A530A8BC4430100B01206DBB4B4BD
:10DE5000FEFF0A241B8324839442F6200000B012A4
:10DE600088DFB4440000E83F3C440E431B93052088
:10DE7000FA902C00000001202E43324104203CE3A4
:10DE80003DE31C530D631E9308282483844C00003B
:10DE90002E9303282483844D00002483844E0000A5
:10DEA000B241F6203E41AC3D43022A2FB8DEB0120B
:10DEB000E0DEB444000030414303752A2F00D6DE73
:10DEC0003412B012D2E12483B4410000B01288DFD2
:10DED000B4440000304143052A2F6D6F6400EEDE2C
:10DEE0003412B0124CDF2483B4410000053C4305DA
:10DEF0006D2F6D6F640046DF0A120A43B4B00080D4
:10DF0000000005281A53B4E3000094530000B4B095
:10DF100000800200021207281A533412B012CAE01D
:10DF20002483B4410000B01288DF32410428B4E3F6
:10DF30000200945302001AB30428B4E3000094537F
:10DF400000003A41304142026D2A7EDF0A120A4344
:10DF50001AE4020022B20428B4E30200945302003F
:10DF60002AE4B4B0008000000428B4E30000945315
:10DF70000000B012D2E10A6A3A41A72C30414306B0
:10DF8000756D2F6D6F64B8DF0A120B120C120D1233
:10DF90003A442C441B4402000D43374011000C9AB4
:10DFA00001280C8A0D6D382C178336240B5B0C6C02
:10DFB000F62B0C8A12D3F63F440675642F6D6F64FE
:10DFC00022E00A120A430B120C120D120F120F4A12
:10DFD0000A430B4337402000945406000600946423
:10DFE000040004000A6A0B6B0F9302241F83F43FA2
:10DFF0002B9402201A940200022C12C3043C1A84AF
:10E0000002002B7412D30C6C0D6D1783E5233F4176
:10E01000844A0600844B0400844C0200844D0000B6
:10E02000EF3C440475646D2A64E00A120B120C1272
:10E030000D120A430B430C430D43374020000A5A8C
:10E040000B6B0C6C0D6D945402000200A464000074
:10E0500006281A5406001B6404000C630D63178322
:10E06000EE23D63F420364322F0074E024111410D3
:10E0700002003041420364322A0088E094540200D6
:10E080000200A464000030414204647368729AE0A4
:10E0900012C3241014100200304142046473686CEF
:10E0A000AEE0945402000200A46400003041420437
:10E0B00064616273BEE08493000007303041420720
:10E0C000646E656761746500DCE0B4E30200B4E38C
:10E0D0000000945302008463000030414402642D28
:10E0E000F0E0948402000600A4740400245230413D
:10E0F0004402642B04E1945402000600A46404006A
:10E10000245230414103733E64001EE12483B44332
:10E110000000849302000230844300003041440335
:10E1200064753E002CE1B01276D7043C440364755C
:10E130003C004AE1948402000600A47404000777BE
:10E14000345006008447000030414402643E56E1EA
:10E15000B01276D7033C4402643C76E1948402001A
:10E160000600A4740400074301343743345006000A
:10E17000844700003041420364303C008AE1B454DB
:10E18000FEFFCA2BB44300003041420364303D001F
:10E190009EE1374427D437B3A474000030414403D0
:10E1A000643C3E00B0E1B012B6E1B4E3000030419F
:10E1B0004402643DCAE1B4E40200022CA4E4040079
:10E1C000947404000400245230414203756D2A0007
:10E1D0000AE20A120B120C120D122C441D4402000A
:10E1E0000A430B43374010000B5B0A6A0D5D02289F
:10E1F0000B5C0A631783F823844B0200844A0000F7
:10E200003D413C413B413A4130414205752F6D6FE4
:10E21000640050E20A120B120C120D120B432C4434
:10E220001A440200374010000A5A0B6B0B9C022C58
:10E2300012C3023C0B8C12D30D6D1783F523844D52
:10E240000000844B02003D413C413B413A4130419A
:10E2500042042F6D6F64A2E20A120A43B4B0008038
:10E26000000005281A53B4E3000094530000B4B032
:10E2700000800200021205281A53B4E302009453EE
:10E280000200B01214E232410428B4E302009453B5
:10E2900002001AB30428B4E30000945300003A418A
:10E2A000304142036D6F6400B2E2B01258E2245371
:10E2B000304142012F00C2E2B01258E2B4440000E3
:10E2C000304142012A00D0E2B012D2E12453304161
:10E2D0000007636F6D70617265002AE30A120B120A
:10E2E0000C120D1237443A443C442B448443000042
:10E2F0000C971A20079316247C4A7D4B7C90410092
:10E3000005287C905B00022C7C5020007D90410011
:10E3100005287D905B00022C7D5020004D9C042040
:10E320001783EA23B44300006B3F000A736B6970E4
:10E33000737472696E6752E30A122A44B01248E39A
:10E34000844A00003A413041774A0A571AB30A63B7
:10E35000304100056374797065007EE30A120B1288
:10E360003A447B4A0B930824774A2483844700006D
:10E37000B012ACD41B83F6233B413A413041000438
:10E380007479706590E30A120B123B443A44EA3FF9
:10E3900030027322A8E330129CE3153C2483A4418D
:10E3A0000000B0120CE4213C30026322BCE33012C6
:10E3B000B4E3093C2483A4410000173C30022E2220
:10E3C000F6E33012E0E32483B4410000B012ECEF36
:10E3D0002483B44022000000B0123AEA3040F4EE48
:10E3E0002483A4410000B0125CE32483B441000004
:10E3F000B01238E330445001280002E437402900CD
:10E40000113C0005636F756E74001CE4274494533F
:10E4100000006747248384470000304150015C00BE
:10E4200032E40743248384470000B0123AEA2452BE
:10E43000304142036D696E0046E43744279402344C
:10E4400084470000304142036D6178005AE437444C
:10E45000279402388447000030414204756D696E8C
:10E460006EE437442794022C844700003041420474
:10E47000756D617882E43744279402288447000050
:10E4800030416102322D8EE4A483000030416102EC
:10E49000312D9AE49483000030416102322BA6E4CE
:10E4A000A453000030416102312BB2E494530000C8
:10E4B000304141046576656EC4E494B30000846322
:10E4C000000030416102322AD0E4A45400003041FF
:10E4D0006102322FDAE4241130414103616273009A
:10E4E000EAE4849300000630304141066E656761BE
:10E4F0007465FEE4B4E30000945300003041690108
:10E500002D000AE5B4840000304169012B0016E5B6
:10E51000B45400003041200662696E61727926E5CC
:10E52000A243F62030410007646563696D616C00A9
:10E530003AE5B2400A00F6203041000368657800F1
:10E540004AE5B2401000F6203041810462617365F3
:10E550005EE52483B440F620000030410A006105E6
:10E5600063656C6C73006EE5A45400003041610576
:10E5700063656C6C2B007EE5A45300003041000401
:10E580006D6F7665BAE50A120B1237443B443A4484
:10E59000079310240A9B092C0A570B571A831B83D5
:10E5A000EB4A00001783FA23053CFB4A00001B538B
:10E5B0001783FB233B413A413041000466696C6C90
:10E5C000E0E50A120B1237443B443A440B9305240E
:10E5D000CA4700001A531B83FB233B413A41304199
:10E5E0004C05636269744000FAE53744E7B4000003
:10E5F0000B3C30413C40E2B00D3C4C04626974403D
:10E600005EE63744A7B4000022B3A4740000304192
:10E610003C40A2B01B930A203CD000042483844CCD
:10E620000000B01232EE82430611133C3CD01000C1
:10E63000341234122B83B012FCECB012E6D72483D0
:10E64000B44024830000B01246EEB0121CEFB012AA
:10E6500046EE2483B44008E600003040C6EF4A0589
:10E6600063786F72210074E63744E7E400002453B6
:10E670003041F2E04A04786F722186E63744B7E40D
:10E6800000003041B2E04A056362696321009CE604
:10E690003744E7C4000024533041F2C04A046269A1
:10E6A0006321AEE63744B7C400003041B2C04A052A
:10E6B000636269732100C4E63744E7D40000245341
:10E6C0003041F2D04A0462697321D6E63744B7D4A8
:10E6D00000003041B2D0000932636F6E7374616E16
:10E6E0007400EEE6B01292F0B012B4EF0A3C0008EB
:10E6F000636F6E7374616E740EE7B01292F0B012B5
:10E700009AEFB012FEEFB0128EF230401EF2000906
:10E71000327661726961626C650024E72483A443E8
:10E720000000143C00087661726961626C6538E72C
:10E730002483944300000A3C00096E76617269618B
:10E74000626C6500ACE7849300003624B01292F04E
:10E75000B290008000111128B4F00F000000B24008
:10E7600080000E11A2D40E11A2841011A2841011E7
:10E770002483944210110000073C2483944200112A
:10E780000000B4500A0000000A120B122B44B01211
:10E790009AEFB012FEEF3A44AB4400002B53B01294
:10E7A00046EE1A83F9233B413A41AD3F00076275BB
:10E7B000666665723A0032E894B300008463000034
:10E7C000B2900080001125281742101127840328D9
:10E7D000379030120C2CB012E0E30F4E6F742065AE
:10E7E0006E6F7567682052414D0A304082EDB0125D
:10E7F00092F0B24080000E11A28410112483944242
:10E8000010110000B0129AEFB012FEEFB01246EEF7
:10E810007A3FB01292F02483944200110000B45069
:10E820000A000000B0129AEFB012FEEFB01240F0F2
:10E830006A3F4A022B2142E83744B7540000304176
:10E84000B2504A03632B210056E83744E7540000D6
:10E8500024533041F250000232216AE83744B74471
:10E8600000002753B74400003041000232407EE8E8
:10E8700027442483B4470000A447020030414A02E1
:10E88000632190E83744E744000024533041F240CC
:10E890004B026340A2E827446747844700003041A9
:10E8A000D4424A012100B2E83744B7440000304165
:10E8B000B2404B014000C2E82744A4470000304169
:10E8C000944281033E696E00D6E82483B440F4206C
:10E8D000000030410000820E63757272656E742D07
:10E8E000736F75726365F6E82483B440F02000000E
:10E8F0003041000076110006736F7572636510E990
:10E9000024829442F02000009442F2200200304120
:10E910000009736574736F757263650028E9B2440A
:10E92000F020B244F22030414003746962003AE9B9
:10E930002483B44076110000304100057175657282
:10E9400079006AE98243F4202483B4407611000000
:10E9500024839444020000002483B4407A00000021
:10E96000B01296E9B0121EE9304100076365787075
:10E97000656374008CE91412020094530200B01213
:10E9800096E93741E74400002453304100066163B3
:10E990006365707420EA0A120B120C120B433C449C
:10E9A000B01292D43A443A9020002A2C3A900900AE
:10E9B00003203A402000243C3A900A0003243A9075
:10E9C0000D000920844B0000B012E0E301203C411F
:10E9D0003B413A4130413A92E3230B93E127B01295
:10E9E000E0E3030820080B93DB271B832A440A5B20
:10E9F0006A4A3AB08000D42B3AB04000F42BD03FA2
:10EA00003A907F00EA270B9CCB2F2744075BC74A2D
:10EA100000001B532483844A0000B012ACD4C03FD2
:10EA20000005746F6B656E0030EA37402000063CCD
:10EA30000005706172736500A4EA37440A120B1274
:10EA40000C120D121A42F2201B42F0201C42F4203C
:10EA50003790200009200C9B07240D4A0D5C6D4D5A
:10EA60000D9702201C53F73F2483844A0000845CE6
:10EA70000000824CF4200C9B08240D4A0D5C6D4D67
:10EA80001C530D97F8239253F4202483844C0000E8
:10EA90009482F4200000824CF4203D413C413B41F3
:10EAA0003A41304150035B275D00AEEA033C000170
:10EAB0002700D4EA0A120B12B0122AEA1A44020002
:10EAC0002B44B012D2F237448493000064243B41BB
:10EAD0003A41304100086576616C7561746506EBFA
:10EAE0001212F0201212F2201212F420B0121EE9BB
:10EAF0008243F420B01214EBB241F420B241F22070
:10EB0000B241F02030410009696E7465727072651F
:10EB1000740060ED0A120B12349078110C28B012B8
:10EB2000E0E31120537461636B20756E6465726657
:10EB30006C6F770A263D349036110C2CB012E0E34E
:10EB40001020537461636B206F766572666C6F770B
:10EB50000A00173DB0122AEA8493000004202452D0
:10EB60003B413A4130418293061104208244061110
:10EB7000A25206111A4402002B44B012D2F284931E
:10EB800002001A20844A0200844B0000B0128EDD7D
:10EB9000B4B4FEFFC1232482844A0200844B0000E7
:10EBA000B01286E3B012E0E30C206E6F7420666F43
:10EBB000756E642E0A00E53C8293EC201D203744DC
:10EBC00037F030003790300013202482844A02004E
:10EBD000844B0000B01286E3B012E0E311206973A9
:10EBE00020636F6D70696C652D6F6E6C790AC93C1E
:10EBF00082430611B412903F3A4434121B4206116C
:10EC00000B9302240B84013C0B430B113AB08000A0
:10EC10000D2C3AB040000D283AB203280B93012482
:10EC2000173C074A37F007000B9703283A418A122E
:10EC3000733FB012FCEC2483B4410000301218EB97
:10EC40003AB01000012830443AB02000BC2DCE3D2F
:10EC50000C121C4102003AF007001A9307201B9384
:10EC600002243C41E33FB01230ED453C2C53BC90B4
:10EC70003041FEFFFB232A9202208C123C3C2C4C9C
:10EC80002A931B201B930724B012AED8B0121CEF9E
:10EC9000B01246EE303C3CD000043CB040000228AC
:10ECA0003CC010002483844C0000B01232EE3CB013
:10ECB00040000228B01254F81E3C3A441B83B012A4
:10ECC000FCEC2482844C0200B44024830000B01287
:10ECD00032EE248284430200844A0000B01232EEF5
:10ECE0003CB040000828248294430200B440C4434E
:10ECF0000000B01232EE3C4121530E3F0B5B152455
:10ED00002482844B0200B44034800000B0122CEF07
:10ED10000C120C43B01224EF2483844C00002C53BB
:10ED2000B01246EE0B9CF6233C4182430611304163
:10ED30003A4C3A903041E2272483844A00003AF06A
:10ED4000700F3A90300409200B9307241B83B4C042
:10ED500000040000B0122CEFEB3FB01246EEE83F8B
:10ED60008109686F6F6B2D71756974007AED24836A
:10ED7000B440EE2000003041AAED000471756974C2
:10ED8000BEED3140301234407611B2400A00F62018
:10ED90008243EC20824306118243F420B240761174
:10EDA000F2208243F0201042EE20B01244E9B0126B
:10EDB00014EBB012E0E305206F6B2E0AF63F000F54
:10EDC00064696374696F6E617279737461727400DF
:10EDD000ECED2483B29000800011042C94420211C7
:10EDE00000003041B44000D400003041000E64699E
:10EDF0006374696F6E6172796E65787440EE9453D6
:10EE00000000B01238E327442747844700002483DA
:10EE1000B443000037930524B793000002248443D1
:10EE2000000030412482B440FEFF0200B440B4B47C
:10EE30000000B01246EE073C248384430000033CEC
:10EE400000012C006CEEB29000800011052C1742DE
:10EE50000011B7440000063C2483944200110000D6
:10EE6000B01232FC2483A4430000EA3C0002632C6D
:10EE70009AEEB29000800011062C17420011E74470
:10EE800000002453063C2483944200110000B01279
:10EE9000FAFB248394430000D33C0005616C69674E
:10EEA0006E00B4EE92B30011042824838443000062
:10EEB000E03F30414107616C69676E656400CAEEEE
:10EEC00094B3000084630000304150065B636861C6
:10EED000725DD6EE043C000463686172E8EEB01225
:10EEE0002AEA2453304096E80007737472696E670B
:10EEF0002C008EEF0A120B12F4F300002B44B01218
:10EF000072EE3A440B9307242483F44A0000B012B3
:10EF100072EE1B83F9233B413A41C43F2483844C66
:10EF20000000043C2483B440B44000000A1227448B
:10EF300037C0300F1A4402000A93032037D0000371
:10EF40001E3C1A93032037D01003193C2A93032048
:10EF500037D02003143C3A93032037D030030F3CC2
:10EF60003A90FF00032037B04000F72F2A92032089
:10EF700037D02002043C3A92062037D03002245386
:10EF800084470000023CB01246EE3A415C3F000864
:10EF90006C69746572616C2CA6EF0B121B43B01286
:10EFA000FCEC3B4130410009326C69746572616C64
:10EFB0002C00BAEF0B122B43F23F0007696E6C690D
:10EFC0006E652C00E2EF0A123A44374A379030411E
:10EFD0000624248384470000B01246EEF63F3A41EF
:10EFE0003041000563616C6C2C00F6EF2483B44063
:10EFF000B01200001E3F00047265742C08F02483D8
:10F00000B440304100001F3F000D666C61736876AC
:10F0100061722D686572650024F02483944210119A
:10F020000000304100046865726536F02483944224
:10F030000011000030410005616C6C6F740086F0B7
:10F04000174200113754B290008000110C2C179217
:10F0500010111628B012E0E30A2052616D20667587
:10F060006C6C0A008E3E379000D40A28B012E0E3A0
:10F070000C20466C6173682066756C6C0A00813EDA
:10F080008247001130410008286372656174652968
:10F0900052F1B0122AEA849300000E20B012E0E38D
:10F0A0001520437265617465206E65656473206E1A
:10F0B000616D6520210A653E2482944404000000AD
:10F0C000944406000200B012D2F22453374407934E
:10F0D0001424B012E0E3095265646566696E652028
:10F0E0002482944404000000944406000200B012FC
:10F0F00086E3B012E0E3022E2000B012A4EE12125A
:10F1000000112483B440FF000000B01272EE82436D
:10F110000E11B012F4EEB29000800011072C24837F
:10F12000944202110000B01246EE103CB01264EEA0
:10F13000B012FEF137442783B793000007202482E2
:10F14000A441020084470000B01232FCB241021117
:10F150003041000D636F6D70696C65746F72616D25
:10F160003F0078F12483B4430000B2900080001186
:10F170000228844300003041000C636F6D70696C9D
:10F1800065746F72616DC6F1B290008000111A282B
:10F19000B012E0F19292101100111428B012E0E3C5
:10F1A00023205661726961626C657320636F6C6CB9
:10F1B00069646520776974682064696374696F6E37
:10F1C0006172790A3041000E636F6D70696C65740D
:10F1D0006F666C61736814F2B290008000110E2C9F
:10F1E0001742001192420A11001182470A11174278
:10F1F000021192420C11021182470C1130412483FA
:10F2000094420211000094530000B01238E3A4535A
:10F21000000030410006736D7564676554F2B2906A
:10F2200000800011022C07433C3C17420011B793A9
:10F23000FEFF0220B01238EE1212001192420211AB
:10F240000011248394420E110000B01272EEB241FC
:10F2500000113041100B636F6D70696C656F6E6CDF
:10F2600079006AF2374030001C3C1006696E6C6908
:10F270006E657AF237402000143C1009696D6D65A7
:10F2800064696174650094F2374010000A3C3740AD
:10F290004000073C0008736574666C616773CAF2CE
:10F2A0003744B290008000110D2C0B121B4202114A
:10F2B000FB9300000320CB470000023CCBD70000AB
:10F2C0003B413041C2D70E113041000466696E6483
:10F2D0003AF30A120B120C120D120E12B012D2EDEA
:10F2E0003A440C430D437B4A0E4AB01248E37B93E9
:10F2F000172C248294440400000094440600020069
:10F300002483844E0000B0120CE4B012DCE2B4B4EA
:10F31000FEFF06240C4A2C530D4B3C90008006281F
:10F320002A4A3A930324BA930000DD23844C020056
:10F33000844D00003E41304000E22007657865635F
:10F34000757465004AF3B412304130077265637515
:10F35000727365005CF3B012FEF1483E1008706FE6
:10F360007374706F6E6594F3B012B4EA37B0100026
:10F370003D2E37B020000728B0129AEF2483B44006
:10F38000C6EF0000333EB0129AEF2483B440ECEF96
:10F3900000002C3E2005646F65733E00C8F3B01278
:10F3A000AAF32483B4410000304112120011B012BC
:10F3B000FEF1A2440011944102000000B012ECEFF3
:10F3C000B241001121532B3F00073C6275696C6408
:10F3D0007300E0F3B01292F02483A4420000303EA8
:10F3E0000006637265617465FAF3B012D4F3B0126B
:10F3F000AAF32483B4410000304181057374617421
:10F40000650010F42483B440EC200000304100007B
:10F4100000015D001CF4B243EC20304110015B00A0
:10F4200028F48243EC20304130013B005CF48294AC
:10F4300004110F24B012E0E31520537461636B20B4
:10F440006E6F742062616C616E6365642E0A304079
:10F4500082ED8243EC20B012FEEFE13E00013A0063
:10F4600070F482440411B01292F0B243EC203041A7
:10F47000100A302D666F6C6461626C6584F43740ED
:10F4800040000F3F100A312D666F6C6461626C653D
:10F4900098F437404100053F100A322D666F6C64C6
:10F4A00061626C65ACF437404200FB3E100A332DBC
:10F4B000666F6C6461626C65C0F437404300F13E76
:10F4C000100A342D666F6C6461626C65D4F4374049
:10F4D0004400E73E100A352D666F6C6461626C650E
:10F4E000E8F437404500DD3E100A362D666F6C6447
:10F4F00061626C65FCF437404600D33E100A372D3C
:10F50000666F6C6461626C6510F537404700C93EF8
:10F5100000056A756D702C00C8F517440200178449
:10F5200004002783071237F001FC0E24379000FCFB
:10F530000B24B012E0E30D4A756D7020746F6F20DC
:10F540006661720A304082ED3741071037F0FF03E1
:10F5500084D70000174404001212001182470011E2
:10F56000B01246EEB241001124523041248394423D
:10F5700000110000304130120020073CB01224EE90
:10F5800030120024023C3012003CB0129EF5B01242
:10F59000AED82483B4410000C03FB01224EE2483CF
:10F5A000944200110000304064EE30120020053C0F
:10F5B00030120024023C3012003C2482944200119C
:10F5C0000200B4410000A93F30047468656EFCF588
:10F5D000374437900500EF272793EA27B012E0E37E
:10F5E000175374727563747572657320646F6E2738
:10F5F00074206D617463680A304082ED3004656C7C
:10F6000073650EF6B0122AF6B01276D7E13F3002DB
:10F61000696620F6B0129AF52483A44300003041B5
:10F62000300561686561640038F6B0129EF5248388
:10F63000B4400500000030413006726570656174A9
:10F6400048F6B01276F6C43F30057768696C6500FD
:10F650005AF6B01214F6304076D73005756E7469DC
:10F660006C006CF637441793B923883F3005616707
:10F6700061696E007EF637441793B023843F3005EE
:10F68000626567696E0094F6B0126CF5248394434A
:10F6900000003041300465786974A0F63040FEEF18
:10F6A00020016B00B0F62483944104000000304137
:10F6B00020016A00BEF62483A441000030412001ED
:10F6C0006900CCF624838445000030412006756E25
:10F6D0006C6F6F70DCF635413641304130056C653A
:10F6E0006176650012F7031207442483A747FEFFE3
:10F6F000275382970811FA23A747FEFF9753FEFF6F
:10F70000974200110000B7D10000A28308113040D9
:10F7100064EE30052B6C6F6F700050F737443790F4
:10F7200003005C232483B44036F70000B012ECEFF2
:10F73000B01286F5203C355000800586355432B035
:10F7400000010228A1530000055635800080304199
:10F7500030046C6F6F7088F73744379003003E2396
:10F760002482B44006950200B44015530000B01244
:10F7700032EEB01276F5B012C0F8A2440811B440CF
:10F78000D6F600003040C6EF7C033F646F00B0F750
:10F79000B012B6F7A45202002483B44006950000CC
:10F7A000B01246EE1312A03F3041B012E0F7F23F24
:10F7B0007C02646FF4F72483B440EAF70000B012CF
:10F7C000C6EF248294420811020084430000824460
:10F7D0000811B0126CF52483B440030000003041DE
:10F7E0003C40EAF7B01230EDEC3F0612051235440A
:10F7F0003644304130046361736508F824828443E1
:10F800000200B4420000304130033F6F660026F82A
:10F81000B4920000E322B01224EEB44022B3000000
:10F82000B01246EE0D3C7C026F667EF8B49200008A
:10F83000D522B440B4940000B01246EEB01238EEB7
:10F84000B0129EF5B012AED8945300002483B44099
:10F85000090000002483B44024530000B01246EE97
:10F8600030413A441B83B012FCECB4920000B62243
:10F87000844A00003C40B490B0121CEFDF3F3005DA
:10F88000656E646F6600AAF8374437900900A622B7
:10F890003412B0129EF5B012AED8B012AAF524827E
:10F8A000B4410200B442000030413007656E646329
:10F8B00061736500E4F8374437929022B01254F82F
:10F8C0000A123A440A930C2494B30000052894C306
:10F8D0000000B012B0F5023CB012B6F51A83F42362
:10F8E0003A4130414203753C3D00F2F837442794D9
:10F8F000063C4203753E3D0008F9B4940000A47430
:10F900000000B4E3000030414202753E14F9374470
:10F910002794053C4902753C24F9B4940000A47472
:10F920000000304142023C3D30F937442794053C09
:10F9300042023E3D46F9B494000084430000023880
:10F94000B4430000304142013E0052F9374427944D
:10F95000053C42013C0068F9B49400008443000077
:10F960000234B443000030414102303C7CF9B4E041
:10F970000080000022B2A474000030414103303CFA
:10F980003E0090F9849300000224B443000030410B
:10F990004102303DA0F9B4B30000A474000030412E
:10F9A00049023C3EB2F9B494000022B3A4740000B2
:10F9B000304149013D00C2F9B4E40000A4740000E4
:10F9C0003041200464696E74CEF932C230412004A3
:10F9D00065696E74DAF932D23041200565696E745A
:10F9E0003F00F0F9248332B222B3A4740000304106
:10F9F00000036E6F7000FAF930410005726573659F
:10FA000074000AFA82432001001320046C706D30E8
:10FA100018FA32D01800304120046C706D3126FA8B
:10FA200032D05800304120046C706D3234FA32D03C
:10FA30009800304120046C706D3342FA32D0D80007
:10FA4000304120046C706D3450FA32D0F8003041EF
:10FA5000200677616B65757062FAB1C0F000040032
:10FA60003041810A686F6F6B2D70617573657CFA28
:10FA70002483B440EA2000003041F8F900057061A9
:10FA8000757365008AFA1042EA20000B736572698B
:10FA9000616C2D6B65793F00B0FA9212EA202483E5
:10FAA00084430000D2B303000224B4430000304179
:10FAB000000A73657269616C2D6B6579D6FAB012B4
:10FAC0009AFAB4B4FEFFFB27248384430000D44297
:10FAD000660000003041000C73657269616C2D6531
:10FAE0006D69743FFCFA9212EA202483844300007B
:10FAF000E2B303000224B44300003041000B7365FD
:10FB00007269616C2D656D6974001EFBB012E6FAB6
:10FB1000B4B4FEFFFB27E2446700245330410007E2
:10FB20006164632D7663630030FB30121018103C63
:10FB300000076164632D312E350042FB30123038EE
:10FB4000073C0006616E616C6F6784FB3012703891
:10FB5000A2C3B001274437F00F008710075707579B
:10FB60000757075737D060008247B201B241B00152
:10FB7000B2D00300B00192B3B201FD239442B401AC
:10FB800000003041000E6572617365666C617368D8
:10FB900066726F6DA2FB374417C3379000D40A28F2
:10FBA0003041000A6572617365666C617368EEFBD3
:10FBB0003740008032C2C2430000B240805A200168
:10FBC000B79300000E24B24000A52C01B24002A55C
:10FBD0002801B7430000B24000A52801B24010A59B
:10FBE0002C012753379000D4EB23824320010007D8
:10FBF00063666C617368210028FC0A120B123A4498
:10FC00003B443A9000D4342C7B933224FA93000086
:10FC10002F20021232C2B24000A52C01B24040A5F2
:10FC20002801CA4B00001D3C0006666C6173682108
:10FC300076FC0A120B123A443B443A9000D4182C3A
:10FC40001AB3162C3B931424BA930000112002120D
:10FC500032C2B24000A52C01B24040A528018A4B17
:10FC60000000B24000A52801B24010A52C0132418D
:10FC70003B413A41304181096972712D706F727454
:10FC800031009AFC2483B440E82000003041F8F9A8
:10FC900007129212E8203741001381096972712D11
:10FCA000706F72743200BEFC2483B440E620000002
:10FCB0003041F8F907129212E6203741001381070C
:10FCC0006972712D61646300E0FC2483B440E42018
:10FCD00000003041F8F907129212E4203741001376
:10FCE000810B6972712D74696D657261310006FD59
:10FCF0002483B440E22000003041F8F90712921248
:10FD0000E22037410013810B6972712D74696D65B2
:10FD1000726130002CFD2483B440E02000003041AB
:10FD2000F8F907129212E02037410013810C697232
:10FD3000712D7761746368646F6752FD2483B440EA
:10FD4000DE2000003041F8F907129212DE20374120
:10FD50000013810B6972712D74696D6572623100D7
:10FD600078FD2483B440DC2000003041F8F907120C
:10FD70009212DC2037410013810B6972712D746976
:10FD80006D65726230009EFD2483B440DA2000006D
:10FD90003041F8F907129212DA2037410013810836
:10FDA0006972712D636F6D70C0FD2483B440D820DB
:10FDB00000003041F8F907129212D82037410013A1
:10FDC000810B6972712D74696D6572633100E6FD96
:10FDD0002483B440D62000003041F8F90712921273
:10FDE000D62037410013810B6972712D74696D65DE
:10FDF000726330000CFE2483B440D42000003041F4
:10FE0000F8F907129212D420374100138106697263
:10FE1000712D74782CFE2483B440D2200000304130
:10FE2000F8F907129212D220374100138106697245
:10FE3000712D727870FF2483B440D02000003041CF
:10FE4000F8F907129212D02037410013B240805ABD
:10FE5000200131403012344076113C4000213A40BC
:10FE600000D40D4A7B4AB01248E37B9318243BB080
:10FE7000800015283BF00F000B5B0C8B0E4A0F4CDB
:10FE80002E532E53BE903041FEFFFB230B930220D6
:10FE90002C8E053CFF4E00001F531B83FB232A4A78
:10FEA0003A930324BA930000DC23824C1011824D54
:10FEB0000C11B24000D402113A4000D43A900080B4
:10FEC00005242A83BA930000F9272A53824A0A118B
:10FED000B24030120011D242FD105700D242FC1045
:10FEE0005600F2D030001B00F2D080006100F240DA
:10FEF00041006200F24003006300E2426400D2C3AA
:10FF00006100C2430000B24000A52801B24053A5E1
:10FF10002A01B012E0E32F4D6563726973702032DD
:10FF20002E302E3620666F72204D535034333047BA
:10FF300032373535206279204D6174746869617398
:10FF4000204B6F63680A2482B4406CFF0200A44215
:10FF50000000B012D2F284930200062482430611FC
:10FF60002453B4121042EE20304082ED696E697461
:10FF7000FF182D2D2D20466C617368204469637431
:0CFF8000696F6E617279202D2D2D0080BC
:10FFE000DCFD02FE90FCB4FC08FAD6FC22FE42FEC8
:10FFF000FCFC22FD48FDB6FD6EFD94FD08FA4CFEAA
:00000001FF
