EESchema Schematic File Version 2
LIBS:fucti
LIBS:power
LIBS:device
LIBS:transistors
LIBS:conn
LIBS:linear
LIBS:regul
LIBS:74xx
LIBS:cmos4000
LIBS:adc-dac
LIBS:memory
LIBS:xilinx
LIBS:microcontrollers
LIBS:dsp
LIBS:microchip
LIBS:analog_switches
LIBS:motorola
LIBS:texas
LIBS:intel
LIBS:audio
LIBS:interface
LIBS:digital-audio
LIBS:philips
LIBS:display
LIBS:cypress
LIBS:siliconi
LIBS:opto
LIBS:atmel
LIBS:contrib
LIBS:valves
LIBS:pcie
LIBS:fucti-cache
EELAYER 25 0
EELAYER END
$Descr A3 16535 11693
encoding utf-8
Sheet 1 1
Title ""
Date ""
Rev ""
Comp ""
Comment1 ""
Comment2 ""
Comment3 ""
Comment4 ""
$EndDescr
$Comp
L 1702610 J2
U 1 1 594165AA
P 15200 1450
F 0 "J2" H 15550 1600 50  0000 C CNN
F 1 "1702610" H 15550 1300 50  0000 C CNN
F 2 "1702610:1702610" H 15550 1200 50  0001 C CNN
F 3 "https://componentsearchengine.com/Datasheets/2/1702610.pdf" H 15550 1100 50  0001 C CNN
F 4 "PHOENIX CONTACT - 1702610 - TERMINAL BLOCK, WIRE TO BRD, 2POS, 22AWG, THR" H 15550 1000 50  0001 C CNN "Description"
F 5 "Phoenix Contact" H 15550 900 50  0001 C CNN "Manufacturer_Name"
F 6 "1702610" H 15550 800 50  0001 C CNN "Manufacturer_Part_Number"
F 7 "RS" H 15550 700 50  0001 C CNN "Supplier_Name"
F 8 "" H 15550 600 50  0001 C CNN "RS Part Number"
F 9 "" H 15550 500 50  0001 C CNN "Height"
	1    15200 1450
	0    -1   -1   0   
$EndComp
$Comp
L EECS0HD334H C11
U 1 1 5941691F
P 13300 3050
F 0 "C11" H 13650 3200 50  0000 C CNN
F 1 "0.22" H 13650 2900 50  0000 C CNN
F 2 "EECS0HD334H:EECS0HD334H" H 13650 2800 50  0001 C CNN
F 3 "http://uk.rs-online.com/web/p/products/8690755" H 13650 2700 50  0001 C CNN
F 4 "Capacitor Goldcap Series SD 0.33F 5.5V Panasonic 0.33F 75 5.5 V dc Electric Double Layer Capacitor SD" H 13650 2600 50  0001 C CNN "Description"
F 5 "Panasonic" H 13650 2500 50  0001 C CNN "Manufacturer_Name"
F 6 "EECS0HD224H" H 13650 2400 50  0001 C CNN "Manufacturer_Part_Number"
F 7 "RS" H 13650 2300 50  0001 C CNN "Supplier_1_Name"
F 8 "8690755" H 13650 2200 50  0001 C CNN "Supplier_1_Part_Number"
F 9 "Mouser" H 13300 3050 60  0001 C CNN "Supplier_2_Name"
F 10 "667-EEC-S0HD224H" H 13300 3050 60  0001 C CNN "Supplier_2_Part_Number"
F 11 "6.0" H 13650 2100 50  0001 C CNN "Height"
	1    13300 3050
	0    1    1    0   
$EndComp
$Comp
L LED_SINGLE-0603-RED D1
U 1 1 5943AAA4
P 2050 5600
F 0 "D1" H 1950 5480 45  0000 L BNN
F 1 "LED_SINGLE-0603-RED" H 1950 5400 45  0000 L BNN
F 2 "MF_LEDs:MF_LEDs-LED0603" H 2090 5370 20  0001 C CNN
F 3 "" H 2050 5600 60  0001 C CNN
	1    2050 5600
	0    1    1    0   
$EndComp
$Comp
L VEMT2003X01 Q2
U 1 1 5943EFF3
P 2050 7400
F 0 "Q2" H 2750 7550 50  0000 C CNN
F 1 "VEMT2003X01" H 2750 7250 50  0000 C CNN
F 2 "VEMT2003X01:VEMT2003X01_1" H 2750 7150 50  0001 C CNN
F 3 "http://www.mouser.com/ds/2/427/vemt2003x01-256542.pdf" H 2750 7050 50  0001 C CNN
F 4 "VISHAY - VEMT2003X01 - PHOTO TRANSISTOR, NPN, SMD" H 2750 6950 50  0001 C CNN "Description"
F 5 "Vishay" H 2750 6850 50  0001 C CNN "Manufacturer_Name"
F 6 "VEMT2003X01" H 2750 6750 50  0001 C CNN "Manufacturer_Part_Number"
F 7 "Mouser" H 2750 6650 50  0001 C CNN "Supplier_1_Name"
F 8 "78-VEMT2003X01" H 2750 6550 50  0001 C CNN "Supplier_1_Part_Number"
F 9 "RS" H 2750 6450 50  0001 C CNN "Supplier_2_Name"
F 10 "????" H 2050 7400 60  0001 C CNN "Supplier_2_Part_Number"
F 11 "1.6" H 2050 7400 60  0001 C CNN "Height"
	1    2050 7400
	0    1    1    0   
$EndComp
$Comp
L VEMT2003X01 Q1
U 1 1 5943F0F0
P 2050 7150
F 0 "Q1" H 2750 7300 50  0000 C CNN
F 1 "VSMB2943RGX01" H 2750 7000 50  0000 C CNN
F 2 "VEMT2003X01:VEMT2003X01_1" H 2750 6900 50  0001 C CNN
F 3 "http://www.mouser.com/ds/2/427/vemt2003x01-256542.pdf" H 2750 6800 50  0001 C CNN
F 4 "VISHAY - VEMT2003X01 - PHOTO TRANSISTOR, NPN, SMD" H 2750 6700 50  0001 C CNN "Description"
F 5 "Vishay" H 2750 6600 50  0001 C CNN "Manufacturer_Name"
F 6 "VSMB2943RGX01" H 2750 6500 50  0001 C CNN "Manufacturer_Part_Number"
F 7 "RS" H 2750 6400 50  0001 C CNN "Supplier_1_Name"
F 8 "7961195" H 2750 6300 50  0001 C CNN "Supplier_1_Part_Number"
F 9 "Mouser" H 2050 7150 60  0001 C CNN "Supplier_2_Name"
F 10 "863-NCN5150MNTWG" H 2050 7150 60  0001 C CNN "Supplier_2_Part_Number"
F 11 "1.6" H 2050 7150 60  0001 C CNN "Height"
	1    2050 7150
	0    -1   -1   0   
$EndComp
NoConn ~ 5850 4600
NoConn ~ 6050 4600
NoConn ~ 6150 4600
NoConn ~ 6250 4600
NoConn ~ 6350 4600
NoConn ~ 6450 4600
NoConn ~ 6550 4600
NoConn ~ 6650 4600
NoConn ~ 6750 4600
NoConn ~ 6850 4600
NoConn ~ 6950 4600
NoConn ~ 7050 4600
NoConn ~ 3850 8200
NoConn ~ 3850 8100
NoConn ~ 3850 8000
NoConn ~ 3850 7900
$Comp
L MSP430FR5994IPNR IC1
U 1 1 5944ED10
P 3850 6500
F 0 "IC1" H 8400 8250 50  0000 L CNN
F 1 "MSP430FR5994IPNR" H 8400 2750 50  0000 L CNN
F 2 "MSP430FR5994IPNR:QFP50P1400X1400X160-80N" H 8400 2650 50  0001 L CNN
F 3 "http://www.ti.com/lit/gpn/msp430fr5994" H 8400 2550 50  0001 L CNN
F 4 "16 MHz Ultra-Low-Power MCU With 256 KB FRAM, 8 KB SRAM, Low-Energy Vector Math Accelerator" H 8400 2450 50  0001 L CNN "Description"
F 5 "Texas Instruments" H 8400 2350 50  0001 L CNN "Manufacturer_Name"
F 6 "MSP430FR5994IPNR" H 8400 2250 50  0001 L CNN "Manufacturer_Part_Number"
F 7 "RS" H 8400 2150 50  0001 L CNN "Supplier_1_Name"
F 8 "???" H 8400 2050 50  0001 L CNN "Supplier_1_Part_Number"
F 9 "1.6" H 8400 1950 50  0001 L CNN "Height"
	1    3850 6500
	1    0    0    -1  
$EndComp
NoConn ~ 3850 6500
NoConn ~ 3850 6600
NoConn ~ 3850 6700
NoConn ~ 3850 6800
NoConn ~ 3850 6900
NoConn ~ 3850 7000
NoConn ~ 3850 7100
NoConn ~ 3850 7500
NoConn ~ 3850 7600
NoConn ~ 3850 7700
NoConn ~ 3850 7800
NoConn ~ 8550 6600
NoConn ~ 8550 6700
NoConn ~ 8550 6800
NoConn ~ 8550 6900
NoConn ~ 8550 7000
NoConn ~ 8550 7100
NoConn ~ 8550 7200
NoConn ~ 8550 7300
NoConn ~ 8550 7400
NoConn ~ 8550 7500
NoConn ~ 8550 7600
NoConn ~ 8550 7700
NoConn ~ 8550 7800
NoConn ~ 8550 7900
NoConn ~ 8550 8000
NoConn ~ 8550 8100
NoConn ~ 8550 8200
NoConn ~ 5250 10400
NoConn ~ 5350 10400
NoConn ~ 5450 10400
NoConn ~ 5550 10400
NoConn ~ 5650 10400
NoConn ~ 5750 10400
NoConn ~ 5850 10400
NoConn ~ 5950 10400
NoConn ~ 6050 10400
NoConn ~ 6150 10400
NoConn ~ 6250 10400
$Comp
L RESISTOR_0402 R8
U 1 1 594528CC
P 14600 1450
F 0 "R8" H 14700 1510 45  0000 L BNN
F 1 "220" H 14700 1390 45  0000 L BNN
F 2 "MF_Passives:MF_Passives-R0402" H 14850 1360 20  0001 C CNN
F 3 "" H 14600 1450 60  0001 C CNN
	1    14600 1450
	0    -1   -1   0   
$EndComp
$Comp
L 1SMA40CAT3G D2
U 1 1 594542C4
P 14250 1450
F 0 "D2" H 14550 1600 50  0000 C CNN
F 1 "1SMA40CAT3G" H 14550 1300 50  0000 C CNN
F 2 "1SMA40CAT3G:DIONM4826X220N" H 14550 1200 50  0001 C CNN
F 3 "https://componentsearchengine.com/Datasheets/2/1SMA40CAT3G.pdf" H 14550 1100 50  0001 C CNN
F 4 "LITTELFUSE - 1SMA40CAT3G - TVS DIODE, 400W, 40V, BIDIR, DO-214AC" H 14550 1000 50  0001 C CNN "Description"
F 5 "LITTELFUSE" H 14550 900 50  0001 C CNN "Manufacturer_Name"
F 6 "1SMA40CAT3G" H 14550 800 50  0001 C CNN "Manufacturer_Part_Number"
F 7 "Mouser" H 14550 700 50  0001 C CNN "Supplier_1_Name"
F 8 "863-1SMA40CAT3G" H 14550 600 50  0001 C CNN "Supplier_1_Part_Number"
F 9 "Farnell" H 14550 700 50  0001 C CNN "Supplier_2_Name"
F 10 "2533120" H 14550 600 50  0001 C CNN "Supplier_2_Part_Number"
F 11 "2.2" H 14550 500 50  0001 C CNN "Height"
	1    14250 1450
	0    1    1    0   
$EndComp
$Comp
L CAPACITOR_NP_1210 C12
U 1 1 594543EF
P 13650 3400
F 0 "C12" H 13750 3460 45  0000 L BNN
F 1 "100u" H 13750 3340 45  0000 L BNN
F 2 "MF_Passives:MF_Passives-C1210" H 13900 3310 20  0001 C CNN
F 3 "" H 13650 3400 60  0001 C CNN
	1    13650 3400
	1    0    0    -1  
$EndComp
$Comp
L CAPACITOR_NP_0402 C1
U 1 1 59454B2D
P 5100 1650
F 0 "C1" H 5200 1710 45  0000 L BNN
F 1 "100n" H 5200 1590 45  0000 L BNN
F 2 "MF_Passives:MF_Passives-C0402" H 5350 1560 20  0001 C CNN
F 3 "" H 5100 1650 60  0001 C CNN
	1    5100 1650
	1    0    0    -1  
$EndComp
$Comp
L CAPACITOR_NP_0402 C2
U 1 1 59454BE4
P 5500 1650
F 0 "C2" H 5600 1710 45  0000 L BNN
F 1 "100n" H 5600 1590 45  0000 L BNN
F 2 "MF_Passives:MF_Passives-C0402" H 5750 1560 20  0001 C CNN
F 3 "" H 5500 1650 60  0001 C CNN
	1    5500 1650
	1    0    0    -1  
$EndComp
$Comp
L CAPACITOR_NP_0402 C8
U 1 1 59454C3E
P 7100 1650
F 0 "C8" H 7200 1710 45  0000 L BNN
F 1 "1u" H 7200 1590 45  0000 L BNN
F 2 "MF_Passives:MF_Passives-C0402" H 7350 1560 20  0001 C CNN
F 3 "" H 7100 1650 60  0001 C CNN
	1    7100 1650
	1    0    0    -1  
$EndComp
$Comp
L CAPACITOR_NP_0402 C5
U 1 1 59454C97
P 5900 3800
F 0 "C5" H 6000 3860 45  0000 L BNN
F 1 "22p" H 6000 3740 45  0000 L BNN
F 2 "MF_Passives:MF_Passives-C0402" H 6150 3710 20  0001 C CNN
F 3 "" H 5900 3800 60  0001 C CNN
	1    5900 3800
	1    0    0    1   
$EndComp
$Comp
L CAPACITOR_NP_0402 C3
U 1 1 59454CED
P 5500 3800
F 0 "C3" H 5600 3860 45  0000 L BNN
F 1 "22p" H 5600 3740 45  0000 L BNN
F 2 "MF_Passives:MF_Passives-C0402" H 5750 3710 20  0001 C CNN
F 3 "" H 5500 3800 60  0001 C CNN
	1    5500 3800
	-1   0    0    1   
$EndComp
$Comp
L RESISTOR_0402 R9
U 1 1 59454E4B
P 14650 2150
F 0 "R9" H 14750 2210 45  0000 L BNN
F 1 "220" H 14750 2090 45  0000 L BNN
F 2 "MF_Passives:MF_Passives-R0402" H 14900 2060 20  0001 C CNN
F 3 "" H 14650 2150 60  0001 C CNN
	1    14650 2150
	0    1    1    0   
$EndComp
$Comp
L RESISTOR_0402 R7
U 1 1 59455296
P 14250 3700
F 0 "R7" H 14350 3760 45  0000 L BNN
F 1 "22" H 14350 3640 45  0000 L BNN
F 2 "MF_Passives:MF_Passives-R0402" H 14500 3610 20  0001 C CNN
F 3 "" H 14250 3700 60  0001 C CNN
	1    14250 3700
	0    1    -1   0   
$EndComp
$Comp
L RESISTOR_0402 R5
U 1 1 5945529C
P 13300 6000
F 0 "R5" H 13400 6060 45  0000 L BNN
F 1 "30k" H 13400 5940 45  0000 L BNN
F 2 "MF_Passives:MF_Passives-R0402" H 13550 5910 20  0001 C CNN
F 3 "" H 13300 6000 60  0001 C CNN
	1    13300 6000
	-1   0    0    1   
$EndComp
$Comp
L RESISTOR_0402 R6
U 1 1 594552A2
P 13650 1150
F 0 "R6" H 13750 1210 45  0000 L BNN
F 1 "100" H 13750 1090 45  0000 L BNN
F 2 "MF_Passives:MF_Passives-R0402" H 13900 1060 20  0001 C CNN
F 3 "" H 13650 1150 60  0001 C CNN
	1    13650 1150
	1    0    0    -1  
$EndComp
$Comp
L RESISTOR_0402 R2
U 1 1 594552AE
P 3000 7400
F 0 "R2" H 3100 7460 45  0000 L BNN
F 1 "RESISTOR_0402" H 3100 7340 45  0000 L BNN
F 2 "MF_Passives:MF_Passives-R0402" H 3250 7310 20  0001 C CNN
F 3 "" H 3000 7400 60  0001 C CNN
	1    3000 7400
	0    1    1    0   
$EndComp
$Comp
L RESISTOR_0402 R1
U 1 1 594554BE
P 2050 5200
F 0 "R1" H 2150 5260 45  0000 L BNN
F 1 "0" H 2150 5140 45  0000 L BNN
F 2 "MF_Passives:MF_Passives-R0402" H 2300 5110 20  0001 C CNN
F 3 "" H 2050 5200 60  0001 C CNN
	1    2050 5200
	1    0    0    -1  
$EndComp
$Comp
L 1702610 J3
U 1 1 59456F48
P 15200 2850
F 0 "J3" H 15550 3000 50  0000 C CNN
F 1 "1702610" H 15550 2700 50  0000 C CNN
F 2 "1702610:1702610" H 15550 2600 50  0001 C CNN
F 3 "https://componentsearchengine.com/Datasheets/2/1702610.pdf" H 15550 2500 50  0001 C CNN
F 4 "PHOENIX CONTACT - 1702610 - TERMINAL BLOCK, WIRE TO BRD, 2POS, 22AWG, THR" H 15550 2400 50  0001 C CNN "Description"
F 5 "Phoenix Contact" H 15550 2300 50  0001 C CNN "Manufacturer_Name"
F 6 "1702610" H 15550 2200 50  0001 C CNN "Manufacturer_Part_Number"
F 7 "RS" H 15550 2100 50  0001 C CNN "Supplier_Name"
F 8 "" H 15550 2000 50  0001 C CNN "RS Part Number"
F 9 "" H 15550 1900 50  0001 C CNN "Height"
	1    15200 2850
	0    -1   -1   0   
$EndComp
NoConn ~ 12900 1150
NoConn ~ 12400 2250
$Comp
L CAPACITOR_NP_0402 C6
U 1 1 59468180
P 6300 1650
F 0 "C6" H 6400 1710 45  0000 L BNN
F 1 "100n" H 6400 1590 45  0000 L BNN
F 2 "MF_Passives:MF_Passives-C0402" H 6550 1560 20  0001 C CNN
F 3 "" H 6300 1650 60  0001 C CNN
	1    6300 1650
	1    0    0    -1  
$EndComp
$Comp
L CAPACITOR_NP_0402 C4
U 1 1 59468186
P 5900 1650
F 0 "C4" H 6000 1710 45  0000 L BNN
F 1 "100n" H 6000 1590 45  0000 L BNN
F 2 "MF_Passives:MF_Passives-C0402" H 6150 1560 20  0001 C CNN
F 3 "" H 5900 1650 60  0001 C CNN
	1    5900 1650
	1    0    0    -1  
$EndComp
$Comp
L CAPACITOR_NP_0402 C7
U 1 1 5946818C
P 6700 1650
F 0 "C7" H 6800 1710 45  0000 L BNN
F 1 "100n" H 6800 1590 45  0000 L BNN
F 2 "MF_Passives:MF_Passives-C0402" H 6950 1560 20  0001 C CNN
F 3 "" H 6700 1650 60  0001 C CNN
	1    6700 1650
	1    0    0    -1  
$EndComp
NoConn ~ 12400 1950
$Comp
L RESISTOR_1206 R4
U 1 1 59469A55
P 12900 6000
F 0 "R4" H 13000 6060 45  0000 L BNN
F 1 "23k" H 13000 5940 45  0000 L BNN
F 2 "MF_Passives:MF_Passives-R1206" H 13150 5910 20  0001 C CNN
F 3 "" H 12900 6000 60  0001 C CNN
	1    12900 6000
	-1   0    0    1   
$EndComp
$Comp
L FIDUCIAL_0.5MM FID2
U 1 1 5946C6C4
P 5700 850
F 0 "FID2" H 5700 850 45  0000 R TNN
F 1 "FIDUCIAL_0.5MM" H 5700 790 45  0000 R TNN
F 2 "MF_Aesthetics:MF_Aesthetics-FIDUCIAL_0.5MM" H 5730 1000 20  0001 C CNN
F 3 "" H 5700 850 60  0000 C CNN
	1    5700 850 
	1    0    0    -1  
$EndComp
$Comp
L FIDUCIAL_0.5MM FID1
U 1 1 5946C9E4
P 5100 850
F 0 "FID1" H 5100 850 45  0000 R TNN
F 1 "FIDUCIAL_0.5MM" H 5100 790 45  0000 R TNN
F 2 "MF_Aesthetics:MF_Aesthetics-FIDUCIAL_0.5MM" H 5130 1000 20  0001 C CNN
F 3 "" H 5100 850 60  0000 C CNN
	1    5100 850 
	1    0    0    -1  
$EndComp
$Comp
L FIDUCIAL_0.5MM FID3
U 1 1 5946CBEC
P 6300 850
F 0 "FID3" H 6300 850 45  0000 R TNN
F 1 "FIDUCIAL_0.5MM" H 6300 790 45  0000 R TNN
F 2 "MF_Aesthetics:MF_Aesthetics-FIDUCIAL_0.5MM" H 6330 1000 20  0001 C CNN
F 3 "" H 6300 850 60  0000 C CNN
	1    6300 850 
	1    0    0    -1  
$EndComp
$Comp
L FIDUCIAL_0.5MM FID4
U 1 1 5946E0F5
P 6900 850
F 0 "FID4" H 6900 850 45  0000 R TNN
F 1 "FIDUCIAL_0.5MM" H 6900 790 45  0000 R TNN
F 2 "MF_Aesthetics:MF_Aesthetics-FIDUCIAL_0.5MM" H 6930 1000 20  0001 C CNN
F 3 "" H 6900 850 60  0000 C CNN
	1    6900 850 
	1    0    0    -1  
$EndComp
$Comp
L CAPACITOR_NP_0805 C10
U 1 1 5946E722
P 12900 3400
F 0 "C10" H 13000 3460 45  0000 L BNN
F 1 "0.1u" H 13000 3340 45  0000 L BNN
F 2 "MF_Passives:MF_Passives-C0805" H 13150 3310 20  0001 C CNN
F 3 "" H 12900 3400 60  0001 C CNN
	1    12900 3400
	-1   0    0    -1  
$EndComp
NoConn ~ 6550 10400
NoConn ~ 5950 4600
$Comp
L PWR_FLAG #FLG01
U 1 1 59468205
P 4800 1850
F 0 "#FLG01" H 4800 1925 50  0001 C CNN
F 1 "PWR_FLAG" H 4800 2000 50  0000 C CNN
F 2 "" H 4800 1850 50  0001 C CNN
F 3 "" H 4800 1850 50  0001 C CNN
	1    4800 1850
	1    0    0    -1  
$EndComp
$Comp
L PWR_FLAG #FLG02
U 1 1 59468280
P 4800 1450
F 0 "#FLG02" H 4800 1525 50  0001 C CNN
F 1 "PWR_FLAG" H 4800 1600 50  0000 C CNN
F 2 "" H 4800 1450 50  0001 C CNN
F 3 "" H 4800 1450 50  0001 C CNN
	1    4800 1450
	-1   0    0    1   
$EndComp
$Comp
L GND #PWR03
U 1 1 59468C52
P 4800 1950
F 0 "#PWR03" H 4800 1700 50  0001 C CNN
F 1 "GND" H 4800 1800 50  0000 C CNN
F 2 "" H 4800 1950 50  0001 C CNN
F 3 "" H 4800 1950 50  0001 C CNN
	1    4800 1950
	1    0    0    -1  
$EndComp
$Comp
L VCC #PWR04
U 1 1 59468CAC
P 4800 1350
F 0 "#PWR04" H 4800 1200 50  0001 C CNN
F 1 "VCC" H 4800 1500 50  0000 C CNN
F 2 "" H 4800 1350 50  0001 C CNN
F 3 "" H 4800 1350 50  0001 C CNN
	1    4800 1350
	1    0    0    -1  
$EndComp
$Comp
L GND #PWR05
U 1 1 594693DA
P 5700 3700
F 0 "#PWR05" H 5700 3450 50  0001 C CNN
F 1 "GND" H 5700 3550 50  0000 C CNN
F 2 "" H 5700 3700 50  0001 C CNN
F 3 "" H 5700 3700 50  0001 C CNN
	1    5700 3700
	-1   0    0    1   
$EndComp
$Comp
L VCC #PWR06
U 1 1 59469536
P 4650 4400
F 0 "#PWR06" H 4650 4250 50  0001 C CNN
F 1 "VCC" H 4650 4550 50  0000 C CNN
F 2 "" H 4650 4400 50  0001 C CNN
F 3 "" H 4650 4400 50  0001 C CNN
	1    4650 4400
	1    0    0    -1  
$EndComp
$Comp
L VCC #PWR07
U 1 1 59469B2C
P 2050 4900
F 0 "#PWR07" H 2050 4750 50  0001 C CNN
F 1 "VCC" H 2050 5050 50  0000 C CNN
F 2 "" H 2050 4900 50  0001 C CNN
F 3 "" H 2050 4900 50  0001 C CNN
	1    2050 4900
	1    0    0    -1  
$EndComp
$Comp
L GND #PWR08
U 1 1 5946A1AE
P 2050 8900
F 0 "#PWR08" H 2050 8650 50  0001 C CNN
F 1 "GND" H 2050 8750 50  0000 C CNN
F 2 "" H 2050 8900 50  0001 C CNN
F 3 "" H 2050 8900 50  0001 C CNN
	1    2050 8900
	1    0    0    -1  
$EndComp
$Comp
L GND #PWR09
U 1 1 5946A50B
P 13100 6200
F 0 "#PWR09" H 13100 5950 50  0001 C CNN
F 1 "GND" H 13100 6050 50  0000 C CNN
F 2 "" H 13100 6200 50  0001 C CNN
F 3 "" H 13100 6200 50  0001 C CNN
	1    13100 6200
	1    0    0    -1  
$EndComp
$Comp
L GND #PWR010
U 1 1 5946AF63
P 12900 3850
F 0 "#PWR010" H 12900 3600 50  0001 C CNN
F 1 "GND" H 12900 3700 50  0000 C CNN
F 2 "" H 12900 3850 50  0001 C CNN
F 3 "" H 12900 3850 50  0001 C CNN
	1    12900 3850
	1    0    0    -1  
$EndComp
$Comp
L GND #PWR011
U 1 1 5946AFBD
P 13650 3850
F 0 "#PWR011" H 13650 3600 50  0001 C CNN
F 1 "GND" H 13650 3700 50  0000 C CNN
F 2 "" H 13650 3850 50  0001 C CNN
F 3 "" H 13650 3850 50  0001 C CNN
	1    13650 3850
	1    0    0    -1  
$EndComp
$Comp
L GND #PWR012
U 1 1 5946B017
P 14450 3400
F 0 "#PWR012" H 14450 3150 50  0001 C CNN
F 1 "GND" H 14450 3250 50  0000 C CNN
F 2 "" H 14450 3400 50  0001 C CNN
F 3 "" H 14450 3400 50  0001 C CNN
	1    14450 3400
	1    0    0    -1  
$EndComp
$Comp
L VCC #PWR013
U 1 1 5946B0B8
P 14050 3350
F 0 "#PWR013" H 14050 3200 50  0001 C CNN
F 1 "VCC" H 14050 3500 50  0000 C CNN
F 2 "" H 14050 3350 50  0001 C CNN
F 3 "" H 14050 3350 50  0001 C CNN
	1    14050 3350
	1    0    0    -1  
$EndComp
$Comp
L GND #PWR014
U 1 1 5946B1C2
P 13650 1550
F 0 "#PWR014" H 13650 1300 50  0001 C CNN
F 1 "GND" H 13650 1400 50  0000 C CNN
F 2 "" H 13650 1550 50  0001 C CNN
F 3 "" H 13650 1550 50  0001 C CNN
	1    13650 1550
	1    0    0    -1  
$EndComp
$Comp
L VCC #PWR015
U 1 1 5946B2CC
P 12500 1150
F 0 "#PWR015" H 12500 1000 50  0001 C CNN
F 1 "VCC" H 12500 1300 50  0000 C CNN
F 2 "" H 12500 1150 50  0001 C CNN
F 3 "" H 12500 1150 50  0001 C CNN
	1    12500 1150
	1    0    0    -1  
$EndComp
$Comp
L NCN5150MNTWG-RESCUE-fucti-RESCUE-fucti IC2
U 1 1 594163E5
P 13500 1850
F 0 "IC2" H 14450 2400 50  0000 L CNN
F 1 "NCN5150MNTWG" H 14450 900 50  0000 L CNN
F 2 "NCN5150MNTWG:QFN50P400X400X100-21N" H 14450 800 50  0001 L CNN
F 3 "https://componentsearchengine.com/Datasheets/2/NCN5150MNTWG.pdf" H 14450 700 50  0001 L CNN
F 4 "ON SEMICONDUCTOR - NCN5150MNTWG - M-BUS SLAVE TRANSCEIVER, UART, NQFN-20" H 14450 600 50  0001 L CNN "Description"
F 5 "ON Semiconductor" H 14450 500 50  0001 L CNN "Manufacturer_Name"
F 6 "NCN5150MNTWG" H 14450 400 50  0001 L CNN "Manufacturer_Part_Number"
F 7 "RS" H 14450 300 50  0001 L CNN "Supplier_Name"
F 8 "" H 14450 200 50  0001 L CNN "RS Part Number"
F 9 "1" H 14450 100 50  0001 L CNN "Height"
	1    13500 1850
	-1   0    0    -1  
$EndComp
NoConn ~ 13500 1950
$Comp
L GND #PWR016
U 1 1 5946D02D
P 13600 2550
F 0 "#PWR016" H 13600 2300 50  0001 C CNN
F 1 "GND" H 13600 2400 50  0000 C CNN
F 2 "" H 13600 2550 50  0001 C CNN
F 3 "" H 13600 2550 50  0001 C CNN
	1    13600 2550
	1    0    0    -1  
$EndComp
Wire Wire Line
	14800 1450 15200 1450
Wire Wire Line
	13800 1450 14400 1450
Wire Wire Line
	13800 2150 14450 2150
Wire Wire Line
	14850 2150 15200 2150
Wire Wire Line
	15200 750  14900 750 
Wire Wire Line
	14900 750  14900 2150
Connection ~ 14900 2150
Wire Wire Line
	15200 2850 15000 2850
Wire Wire Line
	15000 2850 15000 1450
Connection ~ 15000 1450
Wire Wire Line
	13500 1750 13800 1750
Wire Wire Line
	13800 1750 13800 1450
Connection ~ 14250 1450
Wire Wire Line
	13500 1850 13800 1850
Wire Wire Line
	13800 1850 13800 2150
Connection ~ 14250 2150
Connection ~ 13300 3050
Wire Wire Line
	14450 3700 14750 3700
Wire Wire Line
	14050 3350 14050 3700
Wire Wire Line
	14650 3500 14650 3200
Wire Wire Line
	14650 3200 14450 3200
Wire Wire Line
	14450 3200 14450 3400
Wire Wire Line
	6850 10400 6850 10700
Wire Wire Line
	6850 10700 11400 10700
Wire Wire Line
	11400 10700 11400 4800
Wire Wire Line
	11400 4800 14650 4800
Wire Wire Line
	14550 4700 11300 4700
Wire Wire Line
	11300 4700 11300 10600
Wire Wire Line
	11300 10600 6950 10600
Wire Wire Line
	6950 10600 6950 10400
Wire Wire Line
	6300 1900 6300 1750
Wire Wire Line
	6300 1400 6300 1550
Wire Wire Line
	6700 1400 6700 1550
Connection ~ 6300 1400
Wire Wire Line
	6700 1900 6700 1750
Connection ~ 6300 1900
Wire Wire Line
	5900 1900 5900 1750
Connection ~ 5900 1900
Wire Wire Line
	5500 1900 5500 1750
Connection ~ 5500 1900
Wire Wire Line
	5100 1750 5100 1900
Connection ~ 5100 1900
Wire Wire Line
	5100 1550 5100 1400
Connection ~ 5100 1400
Wire Wire Line
	5500 1400 5500 1550
Connection ~ 5500 1400
Wire Wire Line
	5900 1400 5900 1550
Connection ~ 5900 1400
Wire Wire Line
	12300 1150 12700 1150
Wire Wire Line
	12300 1150 12300 2050
Wire Wire Line
	12300 2050 12400 2050
Connection ~ 12500 1150
Wire Wire Line
	12800 850  12800 1150
Wire Wire Line
	10600 850  12800 850 
Wire Wire Line
	7550 1400 7550 1550
Connection ~ 6700 1400
Wire Wire Line
	7550 1900 7550 1750
Connection ~ 6700 1900
Wire Wire Line
	14450 4600 11100 4600
Wire Wire Line
	11100 4600 11100 8400
Wire Wire Line
	11100 8400 8550 8400
Wire Wire Line
	8550 8300 11000 8300
Wire Wire Line
	11000 8300 11000 4500
Wire Wire Line
	11000 4500 14350 4500
Wire Wire Line
	12900 2950 12900 3300
Wire Wire Line
	12900 3500 12900 3850
Wire Wire Line
	13650 3500 13650 3850
Wire Wire Line
	13000 4300 13000 2950
Wire Wire Line
	10800 4300 13000 4300
Wire Wire Line
	6450 10400 6450 11000
Wire Wire Line
	10800 11000 10800 4300
Wire Wire Line
	6350 10400 6350 11000
Wire Wire Line
	6750 10400 6750 10800
Wire Wire Line
	6750 10800 10500 10800
Wire Wire Line
	10500 10800 10500 2150
Wire Wire Line
	10500 2150 12400 2150
Wire Wire Line
	10600 850  10600 10900
Wire Wire Line
	10600 10900 6650 10900
Wire Wire Line
	6650 10900 6650 10400
Wire Wire Line
	6350 11000 10800 11000
Connection ~ 6450 11000
Wire Wire Line
	13200 2950 13200 3050
Connection ~ 13100 5800
Wire Wire Line
	13100 950  13100 1150
Wire Wire Line
	7100 1400 7100 1550
Wire Wire Line
	7100 1900 7100 1750
Wire Wire Line
	4800 1900 7550 1900
Wire Wire Line
	4800 1400 7550 1400
Wire Wire Line
	5650 4600 5650 4450
Wire Wire Line
	5650 4450 5500 4450
Wire Wire Line
	5500 4450 5500 3900
Connection ~ 5500 4100
Wire Wire Line
	5900 3900 5900 4450
Wire Wire Line
	5900 4450 5750 4450
Wire Wire Line
	5750 4450 5750 4600
Connection ~ 5900 4100
Wire Wire Line
	4850 3700 5900 3700
Connection ~ 5700 3700
Wire Wire Line
	4850 4600 5450 4600
Wire Wire Line
	4850 4600 4850 3700
Connection ~ 5500 3700
Connection ~ 4950 4600
Connection ~ 5050 4600
Connection ~ 5250 4600
Connection ~ 5350 4600
Connection ~ 4850 4600
Connection ~ 4350 4600
Connection ~ 4450 4600
Connection ~ 4650 4600
Wire Wire Line
	4250 4600 4650 4600
Wire Wire Line
	4650 4600 4650 4400
Wire Wire Line
	3850 7400 3200 7400
Wire Wire Line
	2800 7400 2050 7400
Wire Wire Line
	2050 7300 3850 7300
Wire Wire Line
	2050 7400 2050 7300
Connection ~ 2050 7400
Wire Wire Line
	2050 8900 2050 8800
Wire Wire Line
	2050 5500 2050 5400
Wire Wire Line
	2050 5000 2050 4900
Connection ~ 7100 1400
Connection ~ 7100 1900
Wire Wire Line
	4800 1850 4800 1950
Wire Wire Line
	4800 1350 4800 1450
Connection ~ 13100 6200
Connection ~ 4800 1400
Connection ~ 4800 1900
Wire Wire Line
	13100 950  13650 950 
Wire Wire Line
	13650 1350 13650 1550
Wire Wire Line
	13650 1450 13500 1450
Wire Wire Line
	13500 1450 13500 1650
Connection ~ 13650 1450
Wire Wire Line
	13600 2150 13600 2550
Wire Wire Line
	13600 2450 13500 2450
Wire Wire Line
	13500 2250 13600 2250
Connection ~ 13600 2250
Wire Wire Line
	13200 3050 13650 3050
Wire Wire Line
	13650 3050 13650 3300
Connection ~ 13600 2450
Wire Wire Line
	13650 3750 13300 3750
Connection ~ 13650 3750
Wire Wire Line
	13100 2950 13100 5800
Wire Wire Line
	12900 5800 13300 5800
Wire Wire Line
	12900 6200 13300 6200
$Comp
L CYRSTAL_ECX-31B X1
U 1 1 594A8543
P 5700 4100
F 0 "X1" H 5650 4300 45  0000 L BNN
F 1 "CRYSTAL_ECX-31B" H 5950 4150 45  0000 L BNN
F 2 "Crystals:Crystal_SMD_EuroQuartz_EQ161-2pin_3.2x1.5mm_HandSoldering" H 5801 4006 20  0001 C CNN
F 3 "" H 5700 4100 60  0001 C CNN
	1    5700 4100
	1    0    0    -1  
$EndComp
Text Label 3450 7400 0    60   ~ 0
RxEN
Text Label 11800 4300 0    60   ~ 0
PFb
Text Label 14000 4500 0    60   ~ 0
RxD
Text Label 14100 4600 0    60   ~ 0
TxD
Text Label 14200 4700 0    60   ~ 0
sbwDIO
Text Label 14300 4800 0    60   ~ 0
sbwCLK
Text Label 11500 2150 0    60   ~ 0
MbusTx
Text Label 11550 850  0    60   ~ 0
MbusRx
$Comp
L GND #PWR017
U 1 1 594BE80F
P 11050 10100
F 0 "#PWR017" H 11050 9850 50  0001 C CNN
F 1 "GND" H 11050 9950 50  0000 C CNN
F 2 "" H 11050 10100 50  0001 C CNN
F 3 "" H 11050 10100 50  0001 C CNN
	1    11050 10100
	1    0    0    -1  
$EndComp
Wire Wire Line
	11050 10100 11050 10050
$Comp
L VCC #PWR018
U 1 1 594BE94F
P 11050 9300
F 0 "#PWR018" H 11050 9150 50  0001 C CNN
F 1 "VCC" H 11050 9450 50  0000 C CNN
F 2 "" H 11050 9300 50  0001 C CNN
F 3 "" H 11050 9300 50  0001 C CNN
	1    11050 9300
	1    0    0    -1  
$EndComp
$Comp
L CAPACITOR_NP_0402 C13
U 1 1 594BE9C9
P 11050 9950
F 0 "C13" H 11150 10010 45  0000 L BNN
F 1 "1n" H 11150 9890 45  0000 L BNN
F 2 "MF_Passives:MF_Passives-C0402" H 11300 9860 20  0001 C CNN
F 3 "" H 11050 9950 60  0001 C CNN
	1    11050 9950
	1    0    0    -1  
$EndComp
Wire Wire Line
	11050 9750 11050 9850
Wire Wire Line
	11050 9800 11300 9800
Connection ~ 11300 9800
Connection ~ 11050 9800
$Comp
L RESISTOR_0402 R3
U 1 1 594BEDBE
P 11050 9550
F 0 "R3" H 11150 9610 45  0000 L BNN
F 1 "47k" H 11150 9490 45  0000 L BNN
F 2 "MF_Passives:MF_Passives-R0402" H 11300 9460 20  0001 C CNN
F 3 "" H 11050 9550 60  0001 C CNN
	1    11050 9550
	1    0    0    -1  
$EndComp
Wire Wire Line
	11050 9350 11050 9300
Wire Wire Line
	2050 5700 2050 5750
Wire Wire Line
	3850 7200 2050 7200
Wire Wire Line
	2050 7200 2050 7150
Wire Wire Line
	13500 2150 13600 2150
NoConn ~ 13500 2050
NoConn ~ 13500 2350
Wire Wire Line
	14750 3500 14650 3500
$Comp
L CAPACITOR_NP_1210 C9
U 1 1 5B1452B2
P 7550 1650
F 0 "C9" H 7650 1710 45  0000 L BNN
F 1 "10u" H 7650 1590 45  0000 L BNN
F 2 "MF_Passives:MF_Passives-C1206" H 7800 1560 20  0001 C CNN
F 3 "" H 7550 1650 60  0001 C CNN
	1    7550 1650
	1    0    0    -1  
$EndComp
Wire Wire Line
	14350 4500 14350 3900
Wire Wire Line
	14350 3900 14750 3900
Wire Wire Line
	14450 4600 14450 4100
Wire Wire Line
	14450 4100 14750 4100
Wire Wire Line
	14550 4700 14550 4300
Wire Wire Line
	14550 4300 14750 4300
Wire Wire Line
	14650 4800 14650 4500
Wire Wire Line
	14650 4500 14750 4500
$Comp
L PCIeB_01x11 J1
U 1 1 5B1713C4
P 14950 4000
F 0 "J1" H 14950 4600 50  0000 C CNN
F 1 "PCIeB_01x11" H 14950 3400 50  0000 C CNN
F 2 "" H 14950 4000 50  0001 C CNN
F 3 "" H 14950 4000 50  0001 C CNN
	1    14950 4000
	1    0    0    -1  
$EndComp
$EndSCHEMATC
