:10D40000FF142D2D2D204D65637269737020436FBD
:10D410007265202D2D2D18D48109686F6F6B2D6BCF
:10D4200065793F0032D42483B440FE2300003041AC
:10D43000BAFA8108686F6F6B2D6B65794AD42483C3
:10D44000B440FC2300003041DEFA810A686F6F6B44
:10D450002D656D69743F64D42483B440FA230000C1
:10D46000304106FB8109686F6F6B2D656D69740033
:10D470007ED42483B440F823000030412CFB000408
:10D480006B65793F8AD41042FE2300036B657900F7
:10D4900096D41042FC230005656D69743F00A4D446
:10D4A0001042FA230004656D6974B0D41042F82369
:10D4B00000046865782EF2D427448710B012C8D4CF
:10D4C0003744B012C8D4293C47472483844700001E
:10D4D000B4F00F0000000711071107110711248392
:10D4E00084470000B012D8DAB012ACD4B012D8DA47
:10D4F000DD3F0002637200D5B012E0E3010A304163
:10D500006002626C10D52483B440200000003041DA
:10D51000000573706163650022D5B012E0E301205D
:10D520003041000673706163657340D584930000D9
:10D530000524B0121AD594830000FB2324533041F4
:10D540000005776F72647300ECD50A12B012E0E345
:10D5500006776F7264730A00B012D2EDB012E0E386
:10D5600009416464726573733A2024839444020011
:10D570000000B012B8D4B012E0E307466C616773E4
:10D580003A2027446747B012C8D42A441A53248348
:10D59000844A0000B01248E3B012E0E307204C696F
:10D5A0006E6B3A202483A44A0000B012B8D42A53E8
:10D5B0002483844A0000B012E0E306436F64653AB6
:10D5C0002000B012B8D4B012E0E3064E616D653AA7
:10D5D0002000B0125CE3B012E0E3010AB012FEEDED
:10D5E000B4B4FEFFBB2724533A41304100022E73EE
:10D5F000FAD50C123C4006DC0F3C0003682E730089
:10D600000AD60C123C40B8D4073C0003752E7300B8
:10D6100084D60C123C40F8DB0A120B123A40761CFE
:10D620000B4A0B84B012E0E30920537461636B3A38
:10D63000205B12C30B101212F623B2400A00F6232D
:10D640002483844B0000B012F8DBB241F623B01201
:10D65000E0E3025D20000B930C242A832483A44A78
:10D6600000008C121B830524B012E0E3022C200082
:10D67000F43FB012E0E304202A3E0A003B413A4165
:10D680003C41304100032E727300B8D60C123C406E
:10D69000B8D40A120B123A40301D0B4A0B813B8062
:10D6A0000600B012E0E30F2052657475726E737459
:10D6B00061636B3A205BBD3F4404326E6970CAD629
:10D6C000B4440200B4440200304162053264726F17
:10D6D0007000D8D6245230414605322D726F740046
:10D6E0000AD727449444040000009444080004002E
:10D6F0008447080017440200944406000200944442
:10D700000A00060084470A003041460432726F74F2
:10D710003AD72744944408000000944404000800C9
:10D72000844704001744020094440A000200944411
:10D7300006000A00844706003041440532747563D0
:10D740006B006CD724839444040000002483944429
:10D750000400000094440800040094440A000600F9
:10D76000A4440800944402000A0030414405327386
:10D770007761700092D727449444040000008447E6
:10D780000400174402009444060002008447060087
:10D7900030414405326F76657200ACD724829444E0
:10D7A0000800000094440A00020030414204326440
:10D7B0007570C4D724829444040000009444060089
:10D7C000020030410003323E7200DED721829141D7
:10D7D00004000000B1440200B144040030410003E1
:10D7E00032723E00FCD72482944102000000944132
:10D7F00004000200A14104002152304100033272B2
:10D80000400014D824829441020000009441040096
:10D81000020030412006327264726F7022D82152A9
:10D82000304100056465707468003ED83740761C4E
:10D83000078412C30710248384470000304100048A
:10D840007069636B54D82744175307570754A4478C
:10D850000000304162036E69700062D8B444000079
:10D860003041610464726F706ED8245330414303B9
:10D87000726F74008AD827449444040000009444D2
:10D880000200040084470200304143042D726F748B
:10D89000A6D82744944402000000944404000200E7
:10D8A000844704003041420473776170BCD8274438
:10D8B0009444020000008447020030414204747521
:10D8C000636BD8D82483944402000000944404007D
:10D8D0000200A4440400304142046F766572EAD825
:10D8E0002483944404000000304141043F64757077
:10D8F000FAD884930000052030414103647570001C
:10D900000CD92483944402000000304120023E726E
:10D9100016D9341230412002723E24D92483B441F6
:10D92000000030412002724032D92483A44100001B
:10D93000304120057264726F700040D9215330412C
:10D9400000067264657074685CD93740301D0781C9
:10D9500012C3071024838447000030410005727011
:10D9600069636B0072D9274407570751A447000029
:10D97000304120037370400084D9074424838447D6
:10D980000000304120037370210090D924443041BD
:10D99000200372704000A0D92483844100003041EC
:10D9A000200372702100ACD93144304161023E3C09
:10D9B000B6D9A41030414207617273686966740079
:10D9C000D2D9074337E40424241102241783FC230B
:10D9D00030414206727368696674EED9074337E4D2
:10D9E000052412C3241002241783FB23304142066E
:10D9F0006C73686966740ADA074337E40524A45433
:10DA0000000002241783FB23304161037368720016
:10DA100018DA12C324103041610373686C0026DAEF
:10DA2000A454000030416103726F72003CDA12C3EB
:10DA300024100328B4D00080000030416103726FCD
:10DA40006C004EDAA4540000846300003041690386
:10DA5000626963005CDAB4C40000304161036E6F38
:10DA600074006ADAB4E3000030416903786F720031
:10DA700078DAB4E40000304169026F7284DAB4D419
:10DA8000000030416903616E640092DAB4F4000072
:10DA90003041600474727565A2DA2483B4430000D7
:10DAA0003041600566616C736500B4DA2483844399
:10DAB000000030414103636C7A00CEDA37431753DC
:10DAC00012D3A4640000FB2B844700003041000601
:10DAD0002E6469676974FCDA274437900A00032CC6
:10DAE00037503000083C37902400032C3750370063
:10DAF000023C374023008447000030410005646940
:10DB0000676974004CDB2744378030001328379056
:10DB10000A0013283780070037900A000B28379037
:10DB200024000B283780200037900A000328379004
:10DB3000240003288443000030411792F623FA2F73
:10DB4000844700002483B443000030410004686F20
:10DB50006C647ADBF2902300121C0D2C5742121CCD
:10DB6000D253121C07930524D747121C131C17838A
:10DB7000FB23E244131C2453304100047369676E95
:10DB800094DB84930000023024533041B4402D00D4
:10DB90000000E03F00022353ACDBB012B2DB849301
:10DBA0000000FB2384930200F8233041000123008E
:10DBB000CEDB24829442F623020084430000B0129C
:10DBC000C2DFB01276D72453B012D8DAC33F0002B6
:10DBD000233EE6DBB440131C02003740121C6747AB
:10DBE00084470000304100023C23F2DBC243121C98
:10DBF00030410002752E00DC248384430000123C77
:10DC000000012E000CDCB0120CE10C3C000375642A
:10DC10002E001EDCB012ECDBB0129ADB0F3C0002CF
:10DC2000642E54DCB012C4D8B012B6E0B012ECDBF3
:10DC3000B0129ADB2452B01282DB2482B012D4DB01
:10DC4000B01286E3B012E0E3012030410A123A40FC
:10DC50001000B93D4402662F96DC0A120A43B4B0A4
:10DC60000080000003281A53B012CAE0B4B000804C
:10DC7000040007281A53B01276D7B012CAE0B012C7
:10DC800076D7B0124CDCB012C0D61AB30228B0124C
:10DC9000CAE03A4130414402662ADEDC0A120A43F5
:10DCA000B4B00080000003281A53B012CAE0B012CA
:10DCB00076D7B4B00080000003281A53B012CAE02F
:10DCC000B0122AE0944404000600944402000400C8
:10DCD00024521AB30228B012CAE03A41304100057A
:10DCE000686F6C643C0000DDF2902300121C062C6F
:10DCF000D253121C5742121CE744121C24533041C9
:10DD00000003662353001ADD0A123A401000B012D5
:10DD100020DD1A83FC233A4130410002662332DDC4
:10DD200024839442F6230000B012D2E1B012D8DA74
:10DD3000DB3F0002662E3EDD30121000053C000382
:10DD4000662E6E0084DD3412B012C4D8B012B6E074
:10DD5000248384430000B012ECDBB0129ADB24531E
:10DD6000B4402C000000B012E8DCB01220DD91833A
:10DD70000000FB232153944402000000B01282DB18
:10DD800024835C3F00066E756D626572A8DE0A1220
:10DD90000B120C120D120E121212F6230E433B44FC
:10DDA0003A440B937A246D4A7D9024003C40100045
:10DDB00009247D9025002C4305247D9023003C40C0
:10DDC0000A000520824CF6231A531B836624FA901E
:10DDD0002D000000021202201A531B830C430D4336
:10DDE0001E430B934A24FA902E00000002202E437B
:10DDF0001B3C2483E44A0000C4430100B01206DB4C
:10DE0000B4B4FEFF14243482844C0600844D040014
:10DE10009442F623020084430000B0122AE0245208
:10DE20003D443C443C540D631A531B83DA3F0D4C74
:10DE30000C432483844C000024830A5B1A83E44A45
:10DE400000001A530A8BC4430100B01206DBB4B4BD
:10DE5000FEFF0A241B8324839442F6230000B012A1
:10DE600088DFB4440000E83F3C440E431B93052088
:10DE7000FA902C00000001202E43324104203CE3A4
:10DE80003DE31C530D631E9308282483844C00003B
:10DE90002E9303282483844D00002483844E0000A5
:10DEA000B241F6233E41AC3D43022A2FB8DEB01208
:10DEB000E0DEB444000030414303752A2F00D6DE73
:10DEC0003412B012D2E12483B4410000B01288DFD2
:10DED000B4440000304143052A2F6D6F6400EEDE2C
:10DEE0003412B0124CDF2483B4410000053C4305DA
:10DEF0006D2F6D6F640046DF0A120A43B4B00080D4
:10DF0000000005281A53B4E3000094530000B4B095
:10DF100000800200021207281A533412B012CAE01D
:10DF20002483B4410000B01288DF32410428B4E3F6
:10DF30000200945302001AB30428B4E3000094537F
:10DF400000003A41304142026D2A7EDF0A120A4344
:10DF50001AE4020022B20428B4E30200945302003F
:10DF60002AE4B4B0008000000428B4E30000945315
:10DF70000000B012D2E10A6A3A41A72C30414306B0
:10DF8000756D2F6D6F64B8DF0A120B120C120D1233
:10DF90003A442C441B4402000D43374011000C9AB4
:10DFA00001280C8A0D6D382C178336240B5B0C6C02
:10DFB000F62B0C8A12D3F63F440675642F6D6F64FE
:10DFC00022E00A120A430B120C120D120F120F4A12
:10DFD0000A430B4337402000945406000600946423
:10DFE000040004000A6A0B6B0F9302241F83F43FA2
:10DFF0002B9402201A940200022C12C3043C1A84AF
:10E0000002002B7412D30C6C0D6D1783E5233F4176
:10E01000844A0600844B0400844C0200844D0000B6
:10E02000EF3C440475646D2A64E00A120B120C1272
:10E030000D120A430B430C430D43374020000A5A8C
:10E040000B6B0C6C0D6D945402000200A464000074
:10E0500006281A5406001B6404000C630D63178322
:10E06000EE23D63F420364322F0074E024111410D3
:10E0700002003041420364322A0088E094540200D6
:10E080000200A464000030414204647368729AE0A4
:10E0900012C3241014100200304142046473686CEF
:10E0A000AEE0945402000200A46400003041420437
:10E0B00064616273BEE08493000007303041420720
:10E0C000646E656761746500DCE0B4E30200B4E38C
:10E0D0000000945302008463000030414402642D28
:10E0E000F0E0948402000600A4740400245230413D
:10E0F0004402642B04E1945402000600A46404006A
:10E10000245230414103733E64001EE12483B44332
:10E110000000849302000230844300003041440335
:10E1200064753E002CE1B01276D7043C440364755C
:10E130003C004AE1948402000600A47404000777BE
:10E14000345006008447000030414402643E56E1EA
:10E15000B01276D7033C4402643C76E1948402001A
:10E160000600A4740400074301343743345006000A
:10E17000844700003041420364303C008AE1B454DB
:10E18000FEFFCA2BB44300003041420364303D001F
:10E190009EE1374427D437B3A474000030414403D0
:10E1A000643C3E00B0E1B012B6E1B4E3000030419F
:10E1B0004402643DCAE1B4E40200022CA4E4040079
:10E1C000947404000400245230414203756D2A0007
:10E1D0000AE20A120B120C120D122C441D4402000A
:10E1E0000A430B43374010000B5B0A6A0D5D02289F
:10E1F0000B5C0A631783F823844B0200844A0000F7
:10E200003D413C413B413A4130414205752F6D6FE4
:10E21000640050E20A120B120C120D120B432C4434
:10E220001A440200374010000A5A0B6B0B9C022C58
:10E2300012C3023C0B8C12D30D6D1783F523844D52
:10E240000000844B02003D413C413B413A4130419A
:10E2500042042F6D6F64A2E20A120A43B4B0008038
:10E26000000005281A53B4E3000094530000B4B032
:10E2700000800200021205281A53B4E302009453EE
:10E280000200B01214E232410428B4E302009453B5
:10E2900002001AB30428B4E30000945300003A418A
:10E2A000304142036D6F6400B2E2B01258E2245371
:10E2B000304142012F00C2E2B01258E2B4440000E3
:10E2C000304142012A00D0E2B012D2E12453304161
:10E2D0000007636F6D70617265002AE30A120B120A
:10E2E0000C120D1237443A443C442B448443000042
:10E2F0000C971A20079316247C4A7D4B7C90410092
:10E3000005287C905B00022C7C5020007D90410011
:10E3100005287D905B00022C7D5020004D9C042040
:10E320001783EA23B44300006B3F000A736B6970E4
:10E33000737472696E6752E30A122A44B01248E39A
:10E34000844A00003A413041774A0A571AB30A63B7
:10E35000304100056374797065007EE30A120B1288
:10E360003A447B4A0B930824774A2483844700006D
:10E37000B012ACD41B83F6233B413A413041000438
:10E380007479706590E30A120B123B443A44EA3FF9
:10E3900030027322A8E330129CE3153C2483A4418D
:10E3A0000000B0120CE4213C30026322BCE33012C6
:10E3B000B4E3093C2483A4410000173C30022E2220
:10E3C000F6E33012E0E32483B4410000B012ECEF36
:10E3D0002483B44022000000B0123AEA3040F4EE48
:10E3E0002483A4410000B0125CE32483B441000004
:10E3F000B01238E330445001280002E437402900CD
:10E40000113C0005636F756E74001CE4274494533F
:10E4100000006747248384470000304150015C00BE
:10E4200032E40743248384470000B0123AEA2452BE
:10E43000304142036D696E0046E43744279402344C
:10E4400084470000304142036D6178005AE437444C
:10E45000279402388447000030414204756D696E8C
:10E460006EE437442794022C844700003041420474
:10E47000756D617882E43744279402288447000050
:10E4800030416102322D8EE4A483000030416102EC
:10E49000312D9AE49483000030416102322BA6E4CE
:10E4A000A453000030416102312BB2E494530000C8
:10E4B000304141046576656EC4E494B30000846322
:10E4C000000030416102322AD0E4A45400003041FF
:10E4D0006102322FDAE4241130414103616273009A
:10E4E000EAE4849300000630304141066E656761BE
:10E4F0007465FEE4B4E30000945300003041690108
:10E500002D000AE5B4840000304169012B0016E5B6
:10E51000B45400003041200662696E61727926E5CC
:10E52000A243F62330410007646563696D616C00A6
:10E530003AE5B2400A00F6233041000368657800EE
:10E540004AE5B2401000F6233041810462617365F0
:10E550005EE52483B440F623000030410A006105E3
:10E5600063656C6C73006EE5A45400003041610576
:10E5700063656C6C2B007EE5A45300003041000401
:10E580006D6F7665BAE50A120B1237443B443A4484
:10E59000079310240A9B092C0A570B571A831B83D5
:10E5A000EB4A00001783FA23053CFB4A00001B538B
:10E5B0001783FB233B413A413041000466696C6C90
:10E5C000E0E50A120B1237443B443A440B9305240E
:10E5D000CA4700001A531B83FB233B413A41304199
:10E5E0004C05636269744000FAE53744E7B4000003
:10E5F0000B3C30413C40E2B00D3C4C04626974403D
:10E600005EE63744A7B4000022B3A4740000304192
:10E610003C40A2B01B930A203CD000042483844CCD
:10E620000000B01232EE8243061C133C3CD01000B6
:10E63000341234122B83B012FCECB012E6D72483D0
:10E64000B44024830000B01246EEB0121CEFB012AA
:10E6500046EE2483B44008E600003040C6EF4A0589
:10E6600063786F72210074E63744E7E400002453B6
:10E670003041F2E04A04786F722186E63744B7E40D
:10E6800000003041B2E04A056362696321009CE604
:10E690003744E7C4000024533041F2C04A046269A1
:10E6A0006321AEE63744B7C400003041B2C04A052A
:10E6B000636269732100C4E63744E7D40000245341
:10E6C0003041F2D04A0462697321D6E63744B7D4A8
:10E6D00000003041B2D0000932636F6E7374616E16
:10E6E0007400EEE6B01292F0B012B4EF0A3C0008EB
:10E6F000636F6E7374616E740EE7B01292F0B012B5
:10E700009AEFB012FEEFB012AEF230403EF20009C6
:10E71000327661726961626C650024E72483A443E8
:10E720000000143C00087661726961626C6538E72C
:10E730002483944300000A3C00096E76617269618B
:10E74000626C6500ACE7849300003624B01292F04E
:10E75000B2900044001C1128B4F00F000000B24039
:10E7600080000E1CA2D40E1CA284101CA284101CBB
:10E7700024839442101C0000073C24839442001C14
:10E780000000B4500A0000000A120B122B44B01211
:10E790009AEFB012FEEF3A44AB4400002B53B01294
:10E7A00046EE1A83F9233B413A41AD3F00076275BB
:10E7B000666665723A0032E894B300008463000034
:10E7C000B2900044001C25281742101C27840328FF
:10E7D0003790301D0C2CB012E0E30F4E6F742065A3
:10E7E0006E6F7567682052414D0A304082EDB0125D
:10E7F00092F0B24080000E1CA284101C248394422C
:10E80000101C0000B0129AEFB012FEEFB01246EEEC
:10E810007A3FB01292F024839442001C0000B4505E
:10E820000A000000B0129AEFB012FEEFB01240F0F2
:10E830006A3F4A022B2142E83744B7540000304176
:10E84000B2504A03632B210056E83744E7540000D6
:10E8500024533041F250000232216AE83744B74471
:10E8600000002753B74400003041000232407EE8E8
:10E8700027442483B4470000A447020030414A02E1
:10E88000632190E83744E744000024533041F240CC
:10E890004B026340A2E827446747844700003041A9
:10E8A000D4424A012100B2E83744B7440000304165
:10E8B000B2404B014000C2E82744A4470000304169
:10E8C000944281033E696E00D6E82483B440F42369
:10E8D000000030410000820E63757272656E742D07
:10E8E000736F75726365F6E82483B440F02300000B
:10E8F00030410000761C0006736F7572636510E985
:10E9000024829442F02300009442F223020030411A
:10E910000009736574736F757263650028E9B2440A
:10E92000F023B244F22330414003746962003AE9B3
:10E930002483B440761C0000304100057175657277
:10E9400079006AE98243F4232483B440761C0000F2
:10E9500024839444020000002483B4407A00000021
:10E96000B01296E9B0121EE9304100076365787075
:10E97000656374008CE91412020094530200B01213
:10E9800096E93741E74400002453304100066163B3
:10E990006365707420EA0A120B120C120B433C449C
:10E9A000B01292D43A443A9020002A2C3A900900AE
:10E9B00003203A402000243C3A900A0003243A9075
:10E9C0000D000920844B0000B012E0E301203C411F
:10E9D0003B413A4130413A92E3230B93E127B01295
:10E9E000E0E3030820080B93DB271B832A440A5B20
:10E9F0006A4A3AB08000D42B3AB04000F42BD03FA2
:10EA00003A907F00EA270B9CCB2F2744075BC74A2D
:10EA100000001B532483844A0000B012ACD4C03FD2
:10EA20000005746F6B656E0030EA37402000063CCD
:10EA30000005706172736500A4EA37440A120B1274
:10EA40000C120D121A42F2231B42F0231C42F42333
:10EA50003790200009200C9B07240D4A0D5C6D4D5A
:10EA60000D9702201C53F73F2483844A0000845CE6
:10EA70000000824CF4230C9B08240D4A0D5C6D4D64
:10EA80001C530D97F8239253F4232483844C0000E5
:10EA90009482F4230000824CF4233D413C413B41ED
:10EAA0003A41304150035B275D00AEEA033C000170
:10EAB0002700D4EA0A120B12B0122AEA1A44020002
:10EAC0002B44B012F2F237448493000064243B419B
:10EAD0003A41304100086576616C7561746506EBFA
:10EAE0001212F0231212F2231212F423B0121EE9B2
:10EAF0008243F423B01214EBB241F423B241F22367
:10EB0000B241F02330410009696E7465727072651C
:10EB1000740060ED0A120B123490781C0C28B012AD
:10EB2000E0E31120537461636B20756E6465726657
:10EB30006C6F770A263D3490361C0C2CB012E0E343
:10EB40001020537461636B206F766572666C6F770B
:10EB50000A00173DB0122AEA8493000004202452D0
:10EB60003B413A4130418293061C04208244061CFA
:10EB7000A252061C1A4402002B44B012F2F28493F3
:10EB800002001A20844A0200844B0000B0128EDD7D
:10EB9000B4B4FEFFC1232482844A0200844B0000E7
:10EBA000B01286E3B012E0E30C206E6F7420666F43
:10EBB000756E642E0A00E53C8293EC231D203744D9
:10EBC00037F030003790300013202482844A02004E
:10EBD000844B0000B01286E3B012E0E311206973A9
:10EBE00020636F6D70696C652D6F6E6C790AC93C1E
:10EBF0008243061CB412903F3A4434121B42061C56
:10EC00000B9302240B84013C0B430B113AB08000A0
:10EC10000D2C3AB040000D283AB203280B93012482
:10EC2000173C074A37F007000B9703283A418A122E
:10EC3000733FB012FCEC2483B4410000301218EB97
:10EC40003AB01000012830443AB02000BC2DCE3D2F
:10EC50000C121C4102003AF007001A9307201B9384
:10EC600002243C41E33FB01230ED453C2C53BC90B4
:10EC70003041FEFFFB232A9202208C123C3C2C4C9C
:10EC80002A931B201B930724B012AED8B0121CEF9E
:10EC9000B01246EE303C3CD000043CB040000228AC
:10ECA0003CC010002483844C0000B01232EE3CB013
:10ECB00040000228B01274F81E3C3A441B83B01284
:10ECC000FCEC2482844C0200B44024830000B01287
:10ECD00032EE248284430200844A0000B01232EEF5
:10ECE0003CB040000828248294430200B440C4434E
:10ECF0000000B01232EE3C4121530E3F0B5B152455
:10ED00002482844B0200B44034800000B0122CEF07
:10ED10000C120C43B01224EF2483844C00002C53BB
:10ED2000B01246EE0B9CF6233C418243061C304158
:10ED30003A4C3A903041E2272483844A00003AF06A
:10ED4000700F3A90300409200B9307241B83B4C042
:10ED500000040000B0122CEFEB3FB01246EEE83F8B
:10ED60008109686F6F6B2D71756974007AED24836A
:10ED7000B440EE2300003041AAED000471756974BF
:10ED8000BEED3140301D3440761CB2400A00F623FF
:10ED90008243EC238243061C8243F423B240761C58
:10EDA000F2238243F0231042EE23B01244E9B01262
:10EDB00014EBB012E0E305206F6B2E0AF63F000F54
:10EDC00064696374696F6E617279737461727400DF
:10EDD000ECED2483B2900044001C042C9442021CED
:10EDE00000003041B44000D400003041000E64699E
:10EDF0006374696F6E6172796E65787440EE9453D6
:10EE00000000B01238E327442747844700002483DA
:10EE1000B443000037930524B793000002248443D1
:10EE2000000030412482B440FEFF0200B440B4B47C
:10EE30000000B01246EE073C248384430000033CEC
:10EE400000012C006CEEB2900044001C052C17420F
:10EE5000001CB7440000063C24839442001C0000C0
:10EE6000B012BAFB2483A4430000EA3C0002632CE6
:10EE70009AEEB2900044001C062C1742001CE74496
:10EE800000002453063C24839442001C0000B0126E
:10EE900098FB248394430000D33C0005616C6967B0
:10EEA0006E00B4EE92B3001C042824838443000057
:10EEB000E03F30414107616C69676E656400CAEEEE
:10EEC00094B3000084630000304150065B636861C6
:10EED000725DD6EE043C000463686172E8EEB01225
:10EEE0002AEA2453304096E80007737472696E670B
:10EEF0002C008EEF0A120B12F4F300002B44B01218
:10EF000072EE3A440B9307242483F44A0000B012B3
:10EF100072EE1B83F9233B413A41C43F2483844C66
:10EF20000000043C2483B440B44000000A1227448B
:10EF300037C0300F1A4402000A93032037D0000371
:10EF40001E3C1A93032037D01003193C2A93032048
:10EF500037D02003143C3A93032037D030030F3CC2
:10EF60003A90FF00032037B04000F72F2A92032089
:10EF700037D02002043C3A92062037D03002245386
:10EF800084470000023CB01246EE3A415C3F000864
:10EF90006C69746572616C2CA6EF0B121B43B01286
:10EFA000FCEC3B4130410009326C69746572616C64
:10EFB0002C00BAEF0B122B43F23F0007696E6C690D
:10EFC0006E652C00E2EF0A123A44374A379030411E
:10EFD0000624248384470000B01246EEF63F3A41EF
:10EFE0003041000563616C6C2C00F6EF2483B44063
:10EFF000B01200001E3F00047265742C08F02483D8
:10F00000B440304100001F3F000D666C61736876AC
:10F0100061722D686572650024F024839442101C8F
:10F020000000304100046865726536F02483944224
:10F03000001C000030410005616C6C6F740086F0AC
:10F040001742001C3754B2900044001C0C2C17923D
:10F05000101C1628B012E0E30A2052616D2066757C
:10F060006C6C0A008E3E379000D40A28B012E0E3A0
:10F070000C20466C6173682066756C6C0A00813EDA
:10F080008247001C3041000828637265617465295D
:10F0900052F1B0122AEA849300000E20B012E0E38D
:10F0A0001520437265617465206E65656473206E1A
:10F0B000616D6520210A653E2482944404000000AD
:10F0C000944406000200B012F2F22453374407932E
:10F0D0001424B012E0E3095265646566696E652028
:10F0E0002482944404000000944406000200B012FC
:10F0F00086E3B012E0E3022E2000B012A4EE12125A
:10F10000001C2483B440FF000000B01272EE824362
:10F110000E1CB012F4EEB2900044001C072C2483A5
:10F120009442021C0000B01246EE103CB01264EE95
:10F13000B0121EF237442783B793000007202482C1
:10F14000A441020084470000B012BAFBB241021C85
:10F1500030410009666F7267657472616D0072F10B
:10F16000B012A8F1B24000D4021CB240301D001C05
:10F170003041000D636F6D70696C65746F72616D05
:10F180003F0098F12483B4430000B2900044001C77
:10F190000228844300003041000C636F6D70696C7D
:10F1A00065746F72616DE6F1B2900044001C1A281C
:10F1B000B01200F29292101C001C1428B012E0E36E
:10F1C00023205661726961626C657320636F6C6C99
:10F1D00069646520776974682064696374696F6E17
:10F1E0006172790A3041000E636F6D70696C6574ED
:10F1F0006F666C61736834F2B2900044001C0E2C90
:10F200001742001C92420A1C001C82470A1C17422B
:10F21000021C92420C1C021C82470C1C30412483AD
:10F220009442021C000094530000B01238E3A4532F
:10F23000000030410006736D7564676574F2B2902A
:10F240000044001C022C07433C3C1742001CB793AF
:10F25000FEFF0220B01238EE1212001C9242021C75
:10F26000001C248394420E1C0000B01272EEB241C6
:10F27000001C3041100B636F6D70696C656F6E6CB4
:10F2800079008AF2374030001C3C1006696E6C69C8
:10F290006E659AF237402000143C1009696D6D6567
:10F2A000646961746500B4F2374010000A3C37406D
:10F2B0004000073C0008736574666C616773EAF28E
:10F2C0003744B2900044001C0D2C0B121B42021C50
:10F2D000FB9300000320CB470000023CCBD700008B
:10F2E0003B413041C2D70E1C3041000466696E6458
:10F2F0005AF30A120B120C120D120E12B012D2EDAA
:10F300003A440C430D437B4A0E4AB01248E37B93C8
:10F31000172C248294440400000094440600020048
:10F320002483844E0000B0120CE4B012DCE2B4B4CA
:10F33000FEFF06240C4A2C530D4B3C90004406283B
:10F340002A4A3A930324BA930000DD23844C020036
:10F35000844D00003E41304000E22007657865633F
:10F36000757465006AF3B4123041300772656375D5
:10F37000727365007CF3B0121EF2383E1008706F95
:10F380007374706F6E65B4F3B012B4EA37B01000E6
:10F390002D2E37B020000728B0129AEF2483B440F6
:10F3A000C6EF0000233EB0129AEF2483B440ECEF86
:10F3B00000001C3E2005646F65733E00E8F3B01248
:10F3C000CAF32483B441000030411212001CB01271
:10F3D0001EF2A244001C944102000000B012ECEFA7
:10F3E000B241001C21532B3F00073C6275696C64DD
:10F3F000730000F4B01292F02483A4420000203E77
:10F4000000066372656174651AF4B012F4F3B01209
:10F41000CAF32483B44100003041810573746174E0
:10F42000650030F42483B440EC2300003041000038
:10F4300000015D003CF4B243EC23304110015B005D
:10F4400048F48243EC23304130013B007CF4829449
:10F45000041C0F24B012E0E31520537461636B2089
:10F460006E6F742062616C616E6365642E0A304059
:10F4700082ED8243EC23B012FEEFE13E00013A0040
:10F4800090F48244041CB01292F0B243EC23304159
:10F49000100A302D666F6C6461626C65A4F43740AD
:10F4A00040000F3F100A312D666F6C6461626C651D
:10F4B000B8F437404100053F100A322D666F6C6486
:10F4C00061626C65CCF437404200FB3E100A332D7C
:10F4D000666F6C6461626C65E0F437404300F13E36
:10F4E000100A342D666F6C6461626C65F4F4374009
:10F4F0004400E73E100A352D666F6C6461626C65EE
:10F5000008F537404500DD3E100A362D666F6C6405
:10F5100061626C651CF537404600D33E100A372DFA
:10F52000666F6C6461626C6530F537404700C93EB8
:10F5300000056A756D702C00E8F517440200178409
:10F5400004002783071237F001FC0E24379000FCDB
:10F550000B24B012E0E30D4A756D7020746F6F20BC
:10F560006661720A304082ED3741071037F0FF03C1
:10F5700084D70000174404001212001C8247001CAC
:10F58000B01246EEB241001C245230412483944212
:10F59000001C0000304130120020073CB01224EE65
:10F5A00030120024023C3012003CB012BEF5B01202
:10F5B000AED82483B4410000C03FB01224EE2483AF
:10F5C0009442001C0000304064EE30120020053CE4
:10F5D00030120024023C3012003C24829442001C71
:10F5E0000200B4410000A93F30047468656E1CF647
:10F5F000374437900500EF272793EA27B012E0E35E
:10F60000175374727563747572657320646F6E2717
:10F6100074206D617463680A304082ED3004656C5B
:10F6200073652EF6B0124AF6B01276D7E13F30027B
:10F63000696640F6B012BAF52483A4430000304155
:10F64000300561686561640058F6B012BEF5248328
:10F65000B440050000003041300672657065617489
:10F6600068F6B01296F6C43F30057768696C65009D
:10F670007AF6B01234F6304076D73005756E74697C
:10F680006C008CF637441793B923883F30056167C7
:10F6900061696E009EF637441793B023843F3005AE
:10F6A000626567696E00B4F6B0128CF524839443EA
:10F6B00000003041300465786974C0F63040FEEFD8
:10F6C00020016B00D0F624839441040000003041F7
:10F6D00020016A00DEF62483A441000030412001AD
:10F6E0006900ECF624838445000030412006756EE5
:10F6F0006C6F6F70FCF635413641304130056C65FA
:10F700006176650032F7031207442483A747FEFFA2
:10F7100027538297081CFA23A747FEFF9753FEFF43
:10F720009742001C0000B7D10000A283081C3040A3
:10F7300064EE30052B6C6F6F700070F737443790B4
:10F7400003005C232483B44056F70000B012ECEFB2
:10F75000B012A6F5203C355000800586355432B0F5
:10F7600000010228A1530000055635800080304179
:10F7700030046C6F6F70A8F73744379003003E2356
:10F780002482B44006950200B44015530000B01224
:10F7900032EEB01296F5B012E0F8A244081CB44064
:10F7A000F6F600003040C6EF7C033F646F00D0F7F0
:10F7B000B012D6F7A45202002483B440069500008C
:10F7C000B01246EE1312A03F3041B01200F8F23FE3
:10F7D0007C02646F14F82483B4400AF80000B0126D
:10F7E000C6EF24829442081C020084430000824435
:10F7F000081CB0128CF52483B44003000000304193
:10F800003C400AF8B01230EDEC3F061205123544C8
:10F810003644304130046361736528F824828443A0
:10F820000200B4420000304130033F6F660046F8EA
:10F83000B4920000E322B01224EEB44022B30000E0
:10F84000B01246EE0D3C7C026F669EF8B49200004A
:10F85000D522B440B4940000B01246EEB01238EE97
:10F86000B012BEF5B012AED8945300002483B44059
:10F87000090000002483B44024530000B01246EE77
:10F8800030413A441B83B012FCECB4920000B62223
:10F89000844A00003C40B490B0121CEFDF3F3005BA
:10F8A000656E646F6600CAF8374437900900A62277
:10F8B0003412B012BEF5B012AED8B012CAF524821E
:10F8C000B4410200B442000030413007656E646309
:10F8D0006173650004F9374437929022B01274F8CE
:10F8E0000A123A440A930C2494B30000052894C3E6
:10F8F0000000B012D0F5023CB012D6F51A83F42302
:10F900003A4130414203753C3D0012F93744279497
:10F91000063C4203753E3D0028F9B4940000A474EF
:10F920000000B4E3000030414202753E34F9374430
:10F930002794053C4902753C44F9B4940000A47432
:10F940000000304142023C3D50F937442794053CC9
:10F9500042023E3D66F9B494000084430000023840
:10F96000B4430000304142013E0072F9374427940D
:10F97000053C42013C0088F9B49400008443000037
:10F980000234B443000030414102303C9CF9B4E001
:10F990000080000022B2A474000030414103303CDA
:10F9A0003E00B0F9849300000224B44300003041CB
:10F9B0004102303DC0F9B4B30000A47400003041EE
:10F9C00049023C3ED2F9B494000022B3A474000072
:10F9D000304149013D00E2F9B4E40000A4740000A4
:10F9E0003041200464696E74EEF932C23041200463
:10F9F00065696E74FAF932D23041200565696E741A
:10FA00003F0010FA248332B222B3A47400003041C4
:10FA100000036E6F70001AFA30410005726573655D
:10FA200074002AFA82435C01001320046C706D306C
:10FA300038FA32D01800304120046C706D3146FA2B
:10FA400032D05800304120046C706D3254FA32D0FC
:10FA50009800304120046C706D3362FA32D0D800C7
:10FA6000304120046C706D3470FA32D0F8003041AF
:10FA7000200677616B65757082FAB1C0F0000400F2
:10FA80003041810A686F6F6B2D70617573659CFAE8
:10FA90002483B440EA230000304118FA0005706165
:10FAA00075736500AAFA1042EA23000B7365726948
:10FAB000616C2D6B65793F00D0FA9212EA232483A2
:10FAC00084430000D2B3FC050224B443000030415B
:10FAD000000A73657269616C2D6B6579F6FAB01274
:10FAE000BAFAB4B4FEFFFB27248384430000D44257
:10FAF000EC0500003041000C73657269616C2D6586
:10FB00006D69743F1CFB9212EA2324838443000036
:10FB1000E2B3FC050224B44300003041000B7365DE
:10FB20007269616C2D656D6974003EFBB01206FB55
:10FB3000B4B4FEFFFB27E244EE0524533041000E2F
:10FB40006572617365666C61736866726F6D5CFB8C
:10FB5000374417C3379000D40A283041000A657231
:10FB6000617365666C6173688CFB3740004432C218
:10FB7000B240805A5C01B24000A5A005B743000026
:10FB80002753379000D4FA2382435C010007636651
:10FB90006C6173682100B0FB0A123A4437443A9012
:10FBA00000D41D2CB24000A5A005CA470000123C9D
:10FBB0000006666C61736821E2FB0A123A4437441E
:10FBC0003A9000D40C2C1AB30A2CB24000A5A00520
:10FBD0008A470000B24001A5A005C243A1053A41F1
:02FBE0003041B2
:10FBE200000363784000FCFB0A14341224121A0149
:10FBF2006A4A844A00000A1630410002784012FC28
:10FC02000A14341224121A01A44A00000A163041BE
:10FC120000037878400030FC0A1424121412020007
:10FC22001A010018E44A00000A163040AED8000358
:10FC3200637821004AFC0A14341234121A01EA448D
:10FC4200000024530A1630410002782160FC0A1495
:10FC5200341234121A01BA4400000A163041000369
:10FC6200787821007EFC0A14341234121A013412FC
:0CFC720034120018FA4100000A1630415C
:10FC7E0081096972712D706F72743100A2FC248338
:10FC8E00B440E8230000304118FA07129212E8231C
:10FC9E003741001381096972712D706F72743200D1
:10FCAE00C6FC2483B440E6230000304118FA071244
:10FCBE009212E6233741001381096972712D706F1C
:10FCCE0072743300EAFC2483B440E4230000304114
:10FCDE0018FA07129212E423374100138109697250
:10FCEE00712D706F727434000EFD2483B440E223C4
:10FCFE000000304118FA07129212E2233741001326
:10FD0E0081076972712D6164630030FD2483B440F4
:10FD1E00E0230000304118FA07129212E023374117
:10FD2E000013810C6972712D7761746368646F675B
:10FD3E0056FD2483B440DE230000304118FA07122A
:10FD4E009212DE233741001381076972712D72748E
:10FD5E00630078FD2483B440DC230000304118FAA0
:10FD6E0007129212DC233741001381086972712D3C
:10FD7E00636F6D70DAFE2483B440DA2300003041E5
:10FD8E0018FA07129212DA2337410013B240805A42
:10FD9E005C01B24000A5A005B2404004A605B240E9
:10FDAE000010A405B2C02000A805B24001A5A00510
:10FDBE00C243A1053140301D3440761C3C40002426
:10FDCE003A4000D40D4A7B4AB01248E37B93182484
:10FDDE003BB0800015283BF00F000B5B0C8B0E4ADE
:10FDEE000F4C2E532E53BE903041FEFFFB230B9330
:10FDFE0002202C8E053CFF4E00001F531B83FB235D
:10FE0E002A4A3A930324BA930000DC23824C101C36
:10FE1E00824D0C1CB24000D4021C3A4000D43A90E1
:10FE2E00004405242A83BA930000F9272A53824AF4
:10FE3E000A1CB240301D001CB24000A56001824376
:10FE4E006601C243610192C33001F24030002A02C2
:10FE5E00C2432C029243E005B2D08000E005A242DC
:10FE6E00E605B2405155E80592C3E005B012E0E355
:10FE7E00304D65637269737020322E302E372066D6
:10FE8E006F72204D53503433304652363938392044
:10FE9E006279204D61747468696173204B6F636879
:10FEAE000A002482B440D6FE0200A4420000B01222
:10FEBE00F2F28493020006248243061C2453B412E9
:10FECE001042EE23304082ED696E6974FF182D2DBD
:10FEDE002D20466C6173682044696374696F6E618E
:08FEEE007279202D2D2D004436
:0CFF8000FFFFFFFFFFFFFFFFFFFFFFFF81
:10FFC60028FA6EFD28FA04FDE0FC28FA28FABCFCA3
:10FFD60028FA28FA98FC28FA28FA28FA28FA28FA99
:10FFE60028FA28FA26FD28FA28FA28FA4CFD28FAD3
:0AFFF60028FA90FD28FA28FA9AFD77
:00000001FF
