PCBNEW-LibModule-V1  2017-06-13 16:45:41
# encoding utf-8
Units mm
$INDEX
1702610
$EndINDEX
$MODULE 1702610
Po 0 0 0 15 594008a5 00000000 ~~
Li 1702610
Cd 1702610
Kw Connector
Sc 0
At STD
AR 
Op 0 0 0
T0 -4.04787 6.05522 1.27 1.27 0 0.254 N V 21 N "J**"
T1 -4.04787 6.05522 1.27 1.27 0 0.254 N I 21 N "1702610"
DS -4.75 -10.05 2.25 -10.05 0.2 24
DS 2.25 -10.05 2.25 7.45 0.2 24
DS 2.25 7.45 -4.75 7.45 0.2 24
DS -4.75 7.45 -4.75 -10.05 0.2 24
DS -4.75 -10.05 -4.75 7.45 0.2 21
DS -4.75 7.45 2.25 7.45 0.2 21
DS 2.25 7.45 2.25 -10.05 0.2 21
DS -4.75 -10.05 -1.25 -10.05 0.2 21
DS 2.25 -10.05 1.211 -10.05 0.2 21
$PAD
Po -2.25 10.05
Sh "1" C 1.65 1.65 0 0 900
Dr 1.1 0 0
At STD N 00E0FFFF
Ne 0 ""
$EndPAD
$PAD
Po -4.75 7.55
Sh "2" C 1.65 1.65 0 0 900
Dr 1.1 0 0
At STD N 00E0FFFF
Ne 0 ""
$EndPAD
$PAD
Po -2.25 0.65
Sh "3" C 2.3 2.3 0 0 900
Dr 1.5 0 0
At STD N 00E0FFFF
Ne 0 ""
$EndPAD
$EndMODULE 1702610
$EndLIBRARY
