PCBNEW-LibModule-V1  2017-06-17 11:52:24
# encoding utf-8
Units mm
$INDEX
DIONM4826X220N
$EndINDEX
$MODULE DIONM4826X220N
Po 0 0 0 15 594509e8 00000000 ~~
Li DIONM4826X220N
Cd 2 x 2 x 2 + 2 mm pads
Kw Diode
Sc 0
At SMD
AR 
Op 0 0 0
T0 0 0 1.27 1.27 0 0.254 N V 21 N "D**"
T1 0 0 1.27 1.27 0 0.254 N I 21 N "DIONM4826X220N"
DS -3.2 -1.71 3.2 -1.71 0.05 24
DS 3.2 -1.71 3.2 1.71 0.05 24
DS 3.2 1.71 -3.2 1.71 0.05 24
DS -3.2 1.71 -3.2 -1.71 0.05 24
DS -2.425 -1.302 2.425 -1.302 0.1 24
DS 2.425 -1.302 2.425 1.302 0.1 24
DS 2.425 1.302 -2.425 1.302 0.1 24
DS -2.425 1.302 -2.425 -1.302 0.1 24
DS 2.425 -1.302 -2.425 -1.302 0.2 21
DS -2.425 1.302 2.425 1.302 0.2 21
$PAD
Po -1.95 0
Sh "1" R 2 2 0 0 900
At SMD N 00888000
Ne 0 ""
$EndPAD
$PAD
Po 1.95 0
Sh "2" R 2 2 0 0 900
At SMD N 00888000
Ne 0 ""
$EndPAD
$EndMODULE DIONM4826X220N
$EndLIBRARY
