PCBNEW-LibModule-V1  2017-06-14 17:41:56
# encoding utf-8
Units mm
$INDEX
EECS0HD334H
$EndINDEX
$MODULE EECS0HD334H
Po 0 0 0 15 59416754 00000000 ~~
Li EECS0HD334H
Cd EECS0HD334H
Kw Capacitor
Sc 0
At STD
AR 
Op 0 0 0
T0 -0.378 -0.542 1.27 1.27 0 0.254 N V 21 N "C**"
T1 -0.378 -0.542 1.27 1.27 0 0.254 N I 21 N "EECS0HD334H"
DS -0.75 -5.25 10.75 -5.25 0.2 24
DS 10.75 -5.25 10.75 5.25 0.2 24
DS 10.75 5.25 -0.75 5.25 0.2 24
DS -0.75 5.25 -0.75 -5.25 0.2 24
DS 10.75 -5.25 -0.75 -5.25 0.2 21
DS -0.75 5.25 10.75 5.25 0.2 21
DS 10.75 5.25 10.75 0.717 0.2 21
DS 10.75 -5.25 10.75 -0.896 0.2 21
DS -0.75 -5.25 -0.75 -0.817 0.2 21
DS -0.75 5.25 -0.75 0.874 0.2 21
DC -6.946 -0.03 -7.13257 -0.03 0.254 21
$PAD
Po -5 0
Sh "1" C 1.59 1.59 0 0 900
Dr 1.09 0 0
At STD N 00E0FFFF
Ne 0 ""
$EndPAD
$PAD
Po 5 0
Sh "2" C 1.59 1.59 0 0 900
Dr 1.09 0 0
At STD N 00E0FFFF
Ne 0 ""
$EndPAD
$EndMODULE EECS0HD334H
$EndLIBRARY
