PCBNEW-LibModule-V1  2017-06-14 11:30:04
# encoding utf-8
Units mm
$INDEX
SOIC127P600X175-16N
$EndINDEX
$MODULE SOIC127P600X175-16N
Po 0 0 0 15 5941102c 00000000 ~~
Li SOIC127P600X175-16N
Cd SO-16 CASE 751B-05 ISSUE K
Kw Integrated Circuit
Sc 0
At SMD
AR 
Op 0 0 0
T0 0 0 1.27 1.27 0 0.254 N V 21 N "IC**"
T1 0 0 1.27 1.27 0 0.254 N I 21 N "SOIC127P600X175-16N"
DS -3.75 -5.25 3.75 -5.25 0.05 24
DS 3.75 -5.25 3.75 5.25 0.05 24
DS 3.75 5.25 -3.75 5.25 0.05 24
DS -3.75 5.25 -3.75 -5.25 0.05 24
DS -1.95 -4.95 1.95 -4.95 0.1 24
DS 1.95 -4.95 1.95 4.95 0.1 24
DS 1.95 4.95 -1.95 4.95 0.1 24
DS -1.95 4.95 -1.95 -4.95 0.1 24
DS -1.95 -3.68 -0.68 -4.95 0.1 24
DS -1.6 -4.95 1.6 -4.95 0.2 21
DS 1.6 -4.95 1.6 4.95 0.2 21
DS 1.6 4.95 -1.6 4.95 0.2 21
DS -1.6 4.95 -1.6 -4.95 0.2 21
DC -3.5 -6.35 -3.182 -6.35 0.254 21
$PAD
Po -2.725 -4.445
Sh "1" R 0.65 1.55 0 0 900
At SMD N 00888000
Ne 0 ""
$EndPAD
$PAD
Po -2.725 -3.175
Sh "2" R 0.65 1.55 0 0 900
At SMD N 00888000
Ne 0 ""
$EndPAD
$PAD
Po -2.725 -1.905
Sh "3" R 0.65 1.55 0 0 900
At SMD N 00888000
Ne 0 ""
$EndPAD
$PAD
Po -2.725 -0.635
Sh "4" R 0.65 1.55 0 0 900
At SMD N 00888000
Ne 0 ""
$EndPAD
$PAD
Po -2.725 0.635
Sh "5" R 0.65 1.55 0 0 900
At SMD N 00888000
Ne 0 ""
$EndPAD
$PAD
Po -2.725 1.905
Sh "6" R 0.65 1.55 0 0 900
At SMD N 00888000
Ne 0 ""
$EndPAD
$PAD
Po -2.725 3.175
Sh "7" R 0.65 1.55 0 0 900
At SMD N 00888000
Ne 0 ""
$EndPAD
$PAD
Po -2.725 4.445
Sh "8" R 0.65 1.55 0 0 900
At SMD N 00888000
Ne 0 ""
$EndPAD
$PAD
Po 2.725 4.445
Sh "9" R 0.65 1.55 0 0 900
At SMD N 00888000
Ne 0 ""
$EndPAD
$PAD
Po 2.725 3.175
Sh "10" R 0.65 1.55 0 0 900
At SMD N 00888000
Ne 0 ""
$EndPAD
$PAD
Po 2.725 1.905
Sh "11" R 0.65 1.55 0 0 900
At SMD N 00888000
Ne 0 ""
$EndPAD
$PAD
Po 2.725 0.635
Sh "12" R 0.65 1.55 0 0 900
At SMD N 00888000
Ne 0 ""
$EndPAD
$PAD
Po 2.725 -0.635
Sh "13" R 0.65 1.55 0 0 900
At SMD N 00888000
Ne 0 ""
$EndPAD
$PAD
Po 2.725 -1.905
Sh "14" R 0.65 1.55 0 0 900
At SMD N 00888000
Ne 0 ""
$EndPAD
$PAD
Po 2.725 -3.175
Sh "15" R 0.65 1.55 0 0 900
At SMD N 00888000
Ne 0 ""
$EndPAD
$PAD
Po 2.725 -4.445
Sh "16" R 0.65 1.55 0 0 900
At SMD N 00888000
Ne 0 ""
$EndPAD
$EndMODULE SOIC127P600X175-16N
$EndLIBRARY
