PCBNEW-LibModule-V1  2017-06-13 18:42:23
# encoding utf-8
Units mm
$INDEX
QFN50P400X400X100-21N
$EndINDEX
$MODULE QFN50P400X400X100-21N
Po 0 0 0 15 594023ff 00000000 ~~
Li QFN50P400X400X100-21N
Cd QFN20 CASE 485E ISSUE B
Kw Integrated Circuit
Sc 0
At SMD
AR 
Op 0 0 0
T0 0 0 1.27 1.27 0 0.254 N V 21 N "IC**"
T1 0 0 1.27 1.27 0 0.254 N I 21 N "QFN50P400X400X100-21N"
DS -2.625 -2.625 2.625 -2.625 0.05 24
DS 2.625 -2.625 2.625 2.625 0.05 24
DS 2.625 2.625 -2.625 2.625 0.05 24
DS -2.625 2.625 -2.625 -2.625 0.05 24
DS -2 -2 2 -2 0.1 24
DS 2 -2 2 2 0.1 24
DS 2 2 -2 2 0.1 24
DS -2 2 -2 -2 0.1 24
DS -2 -1.5 -1.5 -2 0.1 24
DC -2.375 -1.75 -2.25 -1.75 0.254 21
$PAD
Po -2 -1
Sh "1" R 0.3 0.75 0 0 900
At SMD N 00888000
Ne 0 ""
$EndPAD
$PAD
Po -2 -0.5
Sh "2" R 0.3 0.75 0 0 900
At SMD N 00888000
Ne 0 ""
$EndPAD
$PAD
Po -2 0
Sh "3" R 0.3 0.75 0 0 900
At SMD N 00888000
Ne 0 ""
$EndPAD
$PAD
Po -2 0.5
Sh "4" R 0.3 0.75 0 0 900
At SMD N 00888000
Ne 0 ""
$EndPAD
$PAD
Po -2 1
Sh "5" R 0.3 0.75 0 0 900
At SMD N 00888000
Ne 0 ""
$EndPAD
$PAD
Po -1 2
Sh "6" R 0.3 0.75 0 0 0
At SMD N 00888000
Ne 0 ""
$EndPAD
$PAD
Po -0.5 2
Sh "7" R 0.3 0.75 0 0 0
At SMD N 00888000
Ne 0 ""
$EndPAD
$PAD
Po 0 2
Sh "8" R 0.3 0.75 0 0 0
At SMD N 00888000
Ne 0 ""
$EndPAD
$PAD
Po 0.5 2
Sh "9" R 0.3 0.75 0 0 0
At SMD N 00888000
Ne 0 ""
$EndPAD
$PAD
Po 1 2
Sh "10" R 0.3 0.75 0 0 0
At SMD N 00888000
Ne 0 ""
$EndPAD
$PAD
Po 2 1
Sh "11" R 0.3 0.75 0 0 900
At SMD N 00888000
Ne 0 ""
$EndPAD
$PAD
Po 2 0.5
Sh "12" R 0.3 0.75 0 0 900
At SMD N 00888000
Ne 0 ""
$EndPAD
$PAD
Po 2 0
Sh "13" R 0.3 0.75 0 0 900
At SMD N 00888000
Ne 0 ""
$EndPAD
$PAD
Po 2 -0.5
Sh "14" R 0.3 0.75 0 0 900
At SMD N 00888000
Ne 0 ""
$EndPAD
$PAD
Po 2 -1
Sh "15" R 0.3 0.75 0 0 900
At SMD N 00888000
Ne 0 ""
$EndPAD
$PAD
Po 1 -2
Sh "16" R 0.3 0.75 0 0 0
At SMD N 00888000
Ne 0 ""
$EndPAD
$PAD
Po 0.5 -2
Sh "17" R 0.3 0.75 0 0 0
At SMD N 00888000
Ne 0 ""
$EndPAD
$PAD
Po 0 -2
Sh "18" R 0.3 0.75 0 0 0
At SMD N 00888000
Ne 0 ""
$EndPAD
$PAD
Po -0.5 -2
Sh "19" R 0.3 0.75 0 0 0
At SMD N 00888000
Ne 0 ""
$EndPAD
$PAD
Po -1 -2
Sh "20" R 0.3 0.75 0 0 0
At SMD N 00888000
Ne 0 ""
$EndPAD
$PAD
Po 0 0
Sh "21" R 2.9 2.9 0 0 0
At SMD N 00888000
Ne 0 ""
$EndPAD
$EndMODULE QFN50P400X400X100-21N
$EndLIBRARY
