PCBNEW-LibModule-V1  2017-06-13 11:55:32
# encoding utf-8
Units mm
$INDEX
UWT(8X10)
$EndINDEX
$MODULE UWT(8X10)
Po 0 0 0 15 593fc4a4 00000000 ~~
Li UWT(8X10)
Cd UWT(8x10)
Kw Capacitor
Sc 0
At SMD
AR 
Op 0 0 0
T0 -0.37 -0.025 1.27 1.27 0 0.254 N V 21 N "C**"
T1 -0.37 -0.025 1.27 1.27 0 0.254 N I 21 N "UWT(8X10)"
DS -4.15 -4.15 4.15 -4.15 0.254 24
DS 4.15 -4.15 4.15 4.15 0.254 24
DS 4.15 4.15 -4.15 4.15 0.254 24
DS -4.15 4.15 -4.15 -4.15 0.254 24
DS -4.15 -4.15 4.15 -4.15 0.254 21
DS -4.15 4.15 4.15 4.15 0.254 21
DS 4.15 4.15 4.15 1.442 0.254 21
DS -4.15 4.15 -4.15 1.42 0.254 21
DS -4.15 -4.15 -4.15 -1.404 0.254 21
DS 4.15 -4.15 4.15 -1.426 0.254 21
$PAD
Po -3.35 0
Sh "1" R 2.15 4 0 0 900
At SMD N 00888000
Ne 0 ""
$EndPAD
$PAD
Po 3.35 0
Sh "2" R 2.15 4 0 0 900
At SMD N 00888000
Ne 0 ""
$EndPAD
$EndMODULE UWT(8X10)
$EndLIBRARY
