PCBNEW-LibModule-V1  2017-06-16 15:38:58
# encoding utf-8
Units mm
$INDEX
VEMT2003X01_1
$EndINDEX
$MODULE VEMT2003X01_1
Po 0 0 0 15 5943ed82 00000000 ~~
Li VEMT2003X01_1
Cd VEMT2003X01
Kw Transistor
Sc 0
At STD
AR 
Op 0 0 0
T0 -0.37366 -0.05928 1.27 1.27 0 0.254 N V 21 N "Q**"
T1 -0.37366 -0.05928 1.27 1.27 0 0.254 N I 21 N "VEMT2003X01_1"
DS 1.35 -1.15 3.65 -1.15 0.254 24
DS 3.65 -1.15 3.65 1.15 0.254 24
DS 3.65 1.15 1.35 1.15 0.254 24
DS 1.35 1.15 1.35 -1.15 0.254 24
DS 1.35 -1.15 1.35 -0.75 0.254 21
DS 1.35 -1.15 1.75 -1.15 0.254 21
DS 1.35 1.15 1.75 1.15 0.254 21
DS 3.65 -1.15 3.65 -0.75 0.254 21
DS 1.35 1.15 1.35 0.75 0.254 21
DS 3.65 -1.15 3.25 -1.15 0.254 21
DS 3.65 1.15 3.25 1.15 0.254 21
DS 3.65 1.15 3.65 0.75 0.254 21
DC -3.815 -0.028 -3.869 -0.028 0.254 21
$PAD
Po -2.5 0
Sh "1" R 0.75 1.7 0 0 900
At SMD N 00888000
Ne 0 ""
$EndPAD
$PAD
Po 2.5 0
Sh "2" R 0.75 1.7 0 0 900
At SMD N 00888000
Ne 0 ""
$EndPAD
$PAD
Po -0.006 0.001
Sh "3" C 2.3 2.3 0 0 900
Dr 2.3 0 0
At STD N 00E0FFFF
Ne 0 ""
$EndPAD
$EndMODULE VEMT2003X01_1
$EndLIBRARY
